[gd_scene load_steps=4 format=1]

[ext_resource path="res://scenes/gun.tscn" type="PackedScene" id=1]
[ext_resource path="res://scenes/G03.gd" type="Script" id=2]
[ext_resource path="res://sprites/PNG_basic/motion/specialBarrel1_outline.png" type="Texture" id=3]

[node name="gun" instance=ExtResource( 1 )]

script/script = ExtResource( 2 )

[node name="sprite" parent="."]

texture = ExtResource( 3 )
offset = Vector2( 0, 7.5 )

[node name="bullet_leave_position" parent="."]

transform/pos = Vector2( 0, 20 )


