[gd_resource type="TileSet" load_steps=46 format=2]

[ext_resource path="res://Assets/Sprites/TileSets/Grasslands.png" type="Texture" id=1]

[sub_resource type="NavigationPolygon" id=1]
vertices = PoolVector2Array( 0, 80, 0, 0, 80, 0, 80, 80 )
polygons = [ PoolIntArray( 0, 1, 2, 3 ) ]

[sub_resource type="ConvexPolygonShape2D" id=2]
points = PoolVector2Array( 0, 0, 80, 0, 80, 80, 0, 80 )

[sub_resource type="NavigationPolygon" id=3]
vertices = PoolVector2Array( 0, 80, 0, 0, 80, 0, 80, 80 )
polygons = [ PoolIntArray( 0, 1, 2, 3 ) ]

[sub_resource type="ConvexPolygonShape2D" id=4]
points = PoolVector2Array( 0, 0, 80, 0, 80, 80, 0, 80 )

[sub_resource type="NavigationPolygon" id=5]
vertices = PoolVector2Array( 0, 80, 0, 0, 80, 0, 80, 80 )
polygons = [ PoolIntArray( 0, 1, 2, 3 ) ]

[sub_resource type="ConvexPolygonShape2D" id=6]
points = PoolVector2Array( 0, 0, 80, 0, 80, 80, 0, 80 )

[sub_resource type="NavigationPolygon" id=7]
vertices = PoolVector2Array( 80, 80, 0, 80, 0, 0, 80, 0 )
polygons = [ PoolIntArray( 0, 1, 2, 3 ) ]

[sub_resource type="NavigationPolygon" id=8]
vertices = PoolVector2Array( 0, 80, 0, 0, 80, 0, 80, 80 )
polygons = [ PoolIntArray( 0, 1, 2, 3 ) ]

[sub_resource type="NavigationPolygon" id=9]
vertices = PoolVector2Array( 0, 80, 0, 0, 80, 0, 80, 80 )
polygons = [ PoolIntArray( 0, 1, 2, 3 ) ]

[sub_resource type="NavigationPolygon" id=10]
vertices = PoolVector2Array( 0, 80, 0, 0, 80, 0, 80, 80 )
polygons = [ PoolIntArray( 0, 1, 2, 3 ) ]

[sub_resource type="NavigationPolygon" id=11]
vertices = PoolVector2Array( 0, 80, 0, 0, 80, 0, 80, 80 )
polygons = [ PoolIntArray( 0, 1, 2, 3 ) ]

[sub_resource type="NavigationPolygon" id=12]
vertices = PoolVector2Array( 0, 80, 0, 0, 80, 0, 80, 80 )
polygons = [ PoolIntArray( 0, 1, 2, 3 ) ]

[sub_resource type="NavigationPolygon" id=13]
vertices = PoolVector2Array( 0, 80, 0, 0, 80, 0, 80, 80 )
polygons = [ PoolIntArray( 0, 1, 2, 3 ) ]

[sub_resource type="NavigationPolygon" id=14]
vertices = PoolVector2Array( 0, 80, 0, 0, 80, 0, 80, 80 )
polygons = [ PoolIntArray( 0, 1, 2, 3 ) ]

[sub_resource type="NavigationPolygon" id=15]
vertices = PoolVector2Array( 0, 80, 0, 0, 80, 0, 80, 80 )
polygons = [ PoolIntArray( 0, 1, 2, 3 ) ]

[sub_resource type="NavigationPolygon" id=16]
vertices = PoolVector2Array( 0, 80, 0, 0, 80, 0, 80, 80 )
polygons = [ PoolIntArray( 0, 1, 2, 3 ) ]

[sub_resource type="NavigationPolygon" id=17]
vertices = PoolVector2Array( 0, 80, 0, 0, 80, 0, 80, 80 )
polygons = [ PoolIntArray( 0, 1, 2, 3 ) ]

[sub_resource type="NavigationPolygon" id=18]
vertices = PoolVector2Array( 0, 80, 0, 0, 80, 0, 80, 80 )
polygons = [ PoolIntArray( 0, 1, 2, 3 ) ]

[sub_resource type="NavigationPolygon" id=19]
vertices = PoolVector2Array( 0, 80, 0, 0, 80, 0, 80, 80 )
polygons = [ PoolIntArray( 0, 1, 2, 3 ) ]

[sub_resource type="NavigationPolygon" id=20]
vertices = PoolVector2Array( 0, 80, 0, 0, 80, 0, 80, 80 )
polygons = [ PoolIntArray( 0, 1, 2, 3 ) ]

[sub_resource type="NavigationPolygon" id=21]
vertices = PoolVector2Array( 0, 80, 0, 0, 80, 0, 80, 0, 80, 80 )
polygons = [ PoolIntArray( 0, 1, 2, 3, 4 ) ]

[sub_resource type="NavigationPolygon" id=22]
vertices = PoolVector2Array( 0, 80, 0, 0, 80, 0, 80, 0, 80, 80 )
polygons = [ PoolIntArray( 0, 1, 2, 3, 4 ) ]

[sub_resource type="NavigationPolygon" id=23]
vertices = PoolVector2Array( 0, 80, 0, 0, 80, 0, 80, 80 )
polygons = [ PoolIntArray( 0, 1, 2, 3 ) ]

[sub_resource type="NavigationPolygon" id=24]
vertices = PoolVector2Array( 0, 80, 0, 0, 80, 0, 80, 80 )
polygons = [ PoolIntArray( 0, 1, 2, 3 ) ]

[sub_resource type="NavigationPolygon" id=25]
vertices = PoolVector2Array( 0, 80, 0, 0, 80, 0, 80, 80 )
polygons = [ PoolIntArray( 0, 1, 2, 3 ) ]

[sub_resource type="ConvexPolygonShape2D" id=26]
points = PoolVector2Array( 0, 0, 80, 0, 80, 80, 0, 80 )

[sub_resource type="ConvexPolygonShape2D" id=27]
points = PoolVector2Array( 0, 0, 80, 0, 80, 80, 0, 80 )

[sub_resource type="ConvexPolygonShape2D" id=28]
points = PoolVector2Array( 0, 0, 80, 0, 80, 80, 0, 80 )

[sub_resource type="ConvexPolygonShape2D" id=29]
points = PoolVector2Array( 0, 0, 80, 0, 80, 80, 0, 80 )

[sub_resource type="ConvexPolygonShape2D" id=30]
points = PoolVector2Array( 0, 0, 80, 0, 80, 80, 0, 80 )

[sub_resource type="ConvexPolygonShape2D" id=31]
points = PoolVector2Array( 0, 0, 80, 0, 80, 80, 0, 80 )

[sub_resource type="ConvexPolygonShape2D" id=32]
points = PoolVector2Array( 0, 0, 80, 0, 80, 80, 0, 80 )

[sub_resource type="ConvexPolygonShape2D" id=33]
points = PoolVector2Array( 0, 0, 80, 0, 80, 80, 0, 80 )

[sub_resource type="ConvexPolygonShape2D" id=34]
points = PoolVector2Array( 0, 0, 80, 0, 80, 80, 0, 80 )

[sub_resource type="ConvexPolygonShape2D" id=35]
points = PoolVector2Array( 0, 0, 80, 0, 80, 80, 0, 80 )

[sub_resource type="ConvexPolygonShape2D" id=36]
points = PoolVector2Array( 0, 0, 80, 0, 80, 80, 0, 80 )

[sub_resource type="ConvexPolygonShape2D" id=37]
points = PoolVector2Array( 0, 0, 80, 0, 80, 80, 0, 80 )

[sub_resource type="ConvexPolygonShape2D" id=38]
points = PoolVector2Array( 0, 0, 80, 0, 80, 80, 0, 80 )

[sub_resource type="ConvexPolygonShape2D" id=39]
points = PoolVector2Array( 0, 0, 80, 0, 80, 80, 0, 80 )

[sub_resource type="ConvexPolygonShape2D" id=40]
points = PoolVector2Array( 0, 0, 80, 0, 80, 80, 0, 80 )

[sub_resource type="ConvexPolygonShape2D" id=41]
points = PoolVector2Array( 0, 0, 80, 0, 80, 80, 0, 80 )

[sub_resource type="ConvexPolygonShape2D" id=42]
points = PoolVector2Array( 0, 0, 80, 0, 80, 80, 0, 80 )

[sub_resource type="ConvexPolygonShape2D" id=43]
points = PoolVector2Array( 0, 0, 80, 0, 80, 80, 0, 80 )

[sub_resource type="ConvexPolygonShape2D" id=44]
points = PoolVector2Array( 0, 0, 80, 0, 80, 80, 0, 80 )

[resource]
1/name = "grass1"
1/texture = ExtResource( 1 )
1/tex_offset = Vector2( 0, 0 )
1/modulate = Color( 1, 1, 1, 1 )
1/region = Rect2( 0, 0, 80, 80 )
1/tile_mode = 0
1/occluder_offset = Vector2( 0, 0 )
1/navigation_offset = Vector2( 0, 0 )
1/navigation = SubResource( 1 )
1/shape_offset = Vector2( 0, 0 )
1/shape_transform = Transform2D( 1, 0, 0, 1, 0, 0 )
1/shape = SubResource( 2 )
1/shape_one_way = false
1/shape_one_way_margin = 1.0
1/shapes = [ {
"autotile_coord": Vector2( 0, 0 ),
"one_way": false,
"one_way_margin": 1.0,
"shape": SubResource( 2 ),
"shape_transform": Transform2D( 1, 0, 0, 1, 0, 0 )
} ]
1/z_index = 0
2/name = "grass2"
2/texture = ExtResource( 1 )
2/tex_offset = Vector2( 0, 0 )
2/modulate = Color( 1, 1, 1, 1 )
2/region = Rect2( 80, 0, 80, 80 )
2/tile_mode = 0
2/occluder_offset = Vector2( 0, 0 )
2/navigation_offset = Vector2( 0, 0 )
2/navigation = SubResource( 3 )
2/shape_offset = Vector2( 0, 0 )
2/shape_transform = Transform2D( 1, 0, 0, 1, 0, 0 )
2/shape = SubResource( 4 )
2/shape_one_way = false
2/shape_one_way_margin = 1.0
2/shapes = [ {
"autotile_coord": Vector2( 0, 0 ),
"one_way": false,
"one_way_margin": 1.0,
"shape": SubResource( 4 ),
"shape_transform": Transform2D( 1, 0, 0, 1, 0, 0 )
} ]
2/z_index = 0
3/name = "flowers"
3/texture = ExtResource( 1 )
3/tex_offset = Vector2( 0, 0 )
3/modulate = Color( 1, 1, 1, 1 )
3/region = Rect2( 160, 0, 80, 80 )
3/tile_mode = 0
3/occluder_offset = Vector2( 0, 0 )
3/navigation_offset = Vector2( 0, 0 )
3/navigation = SubResource( 5 )
3/shape_offset = Vector2( 0, 0 )
3/shape_transform = Transform2D( 1, 0, 0, 1, 0, 0 )
3/shape_one_way = false
3/shape_one_way_margin = 0.0
3/shapes = [  ]
3/z_index = 0
4/name = "vegetation1"
4/texture = ExtResource( 1 )
4/tex_offset = Vector2( 0, 0 )
4/modulate = Color( 1, 1, 1, 1 )
4/region = Rect2( 240, 0, 80, 80 )
4/tile_mode = 0
4/occluder_offset = Vector2( 0, 0 )
4/navigation_offset = Vector2( 0, 0 )
4/shape_offset = Vector2( 0, 0 )
4/shape_transform = Transform2D( 1, 0, 0, 1, 0, 0 )
4/shape_one_way = false
4/shape_one_way_margin = 0.0
4/shapes = [  ]
4/z_index = 0
8/name = "vegetation2"
8/texture = ExtResource( 1 )
8/tex_offset = Vector2( 0, 0 )
8/modulate = Color( 1, 1, 1, 1 )
8/region = Rect2( 320, 0, 80, 80 )
8/tile_mode = 0
8/occluder_offset = Vector2( 0, 0 )
8/navigation_offset = Vector2( 0, 0 )
8/shape_offset = Vector2( 0, 0 )
8/shape_transform = Transform2D( 1, 0, 0, 1, 0, 0 )
8/shape = SubResource( 6 )
8/shape_one_way = false
8/shape_one_way_margin = 1.0
8/shapes = [ {
"autotile_coord": Vector2( 0, 0 ),
"one_way": false,
"one_way_margin": 1.0,
"shape": SubResource( 6 ),
"shape_transform": Transform2D( 1, 0, 0, 1, 0, 0 )
} ]
8/z_index = 0
9/name = "Grasslands.png 9"
9/texture = ExtResource( 1 )
9/tex_offset = Vector2( 0, 0 )
9/modulate = Color( 1, 1, 1, 1 )
9/region = Rect2( 0, 80, 560, 240 )
9/tile_mode = 1
9/autotile/bitmask_mode = 1
9/autotile/bitmask_flags = [ Vector2( 0, 0 ), 432, Vector2( 0, 1 ), 438, Vector2( 0, 2 ), 54, Vector2( 1, 0 ), 504, Vector2( 1, 1 ), 511, Vector2( 1, 2 ), 63, Vector2( 2, 0 ), 216, Vector2( 2, 1 ), 219, Vector2( 2, 2 ), 27, Vector2( 3, 0 ), 144, Vector2( 3, 1 ), 146, Vector2( 3, 2 ), 18, Vector2( 4, 0 ), 48, Vector2( 4, 1 ), 176, Vector2( 4, 2 ), 50, Vector2( 5, 0 ), 56, Vector2( 5, 1 ), 152, Vector2( 5, 2 ), 26, Vector2( 6, 0 ), 24 ]
9/autotile/icon_coordinate = Vector2( 0, 0 )
9/autotile/tile_size = Vector2( 80, 80 )
9/autotile/spacing = 0
9/autotile/occluder_map = [  ]
9/autotile/navpoly_map = [ Vector2( 0, 0 ), SubResource( 7 ), Vector2( 0, 1 ), SubResource( 8 ), Vector2( 0, 2 ), SubResource( 9 ), Vector2( 1, 0 ), SubResource( 10 ), Vector2( 1, 1 ), SubResource( 11 ), Vector2( 1, 2 ), SubResource( 12 ), Vector2( 2, 0 ), SubResource( 13 ), Vector2( 2, 1 ), SubResource( 14 ), Vector2( 2, 2 ), SubResource( 15 ), Vector2( 3, 0 ), SubResource( 16 ), Vector2( 3, 1 ), SubResource( 17 ), Vector2( 3, 2 ), SubResource( 18 ), Vector2( 4, 0 ), SubResource( 19 ), Vector2( 4, 1 ), SubResource( 20 ), Vector2( 4, 2 ), SubResource( 21 ), Vector2( 5, 0 ), SubResource( 22 ), Vector2( 5, 1 ), SubResource( 23 ), Vector2( 5, 2 ), SubResource( 24 ), Vector2( 6, 0 ), SubResource( 25 ) ]
9/autotile/priority_map = [  ]
9/autotile/z_index_map = [  ]
9/occluder_offset = Vector2( 0, 0 )
9/navigation_offset = Vector2( 0, 0 )
9/shape_offset = Vector2( 0, 0 )
9/shape_transform = Transform2D( 1, 0, 0, 1, 0, 0 )
9/shape = SubResource( 26 )
9/shape_one_way = false
9/shape_one_way_margin = 1.0
9/shapes = [ {
"autotile_coord": Vector2( 0, 0 ),
"one_way": false,
"one_way_margin": 1.0,
"shape": SubResource( 26 ),
"shape_transform": Transform2D( 1, 0, 0, 1, 0, 0 )
}, {
"autotile_coord": Vector2( 1, 0 ),
"one_way": false,
"one_way_margin": 1.0,
"shape": SubResource( 27 ),
"shape_transform": Transform2D( 1, 0, 0, 1, 0, 0 )
}, {
"autotile_coord": Vector2( 2, 0 ),
"one_way": false,
"one_way_margin": 1.0,
"shape": SubResource( 28 ),
"shape_transform": Transform2D( 1, 0, 0, 1, 0, 0 )
}, {
"autotile_coord": Vector2( 3, 0 ),
"one_way": false,
"one_way_margin": 1.0,
"shape": SubResource( 29 ),
"shape_transform": Transform2D( 1, 0, 0, 1, 0, 0 )
}, {
"autotile_coord": Vector2( 4, 0 ),
"one_way": false,
"one_way_margin": 1.0,
"shape": SubResource( 30 ),
"shape_transform": Transform2D( 1, 0, 0, 1, 0, 0 )
}, {
"autotile_coord": Vector2( 5, 0 ),
"one_way": false,
"one_way_margin": 1.0,
"shape": SubResource( 31 ),
"shape_transform": Transform2D( 1, 0, 0, 1, 0, 0 )
}, {
"autotile_coord": Vector2( 6, 0 ),
"one_way": false,
"one_way_margin": 1.0,
"shape": SubResource( 32 ),
"shape_transform": Transform2D( 1, 0, 0, 1, 0, 0 )
}, {
"autotile_coord": Vector2( 5, 1 ),
"one_way": false,
"one_way_margin": 1.0,
"shape": SubResource( 33 ),
"shape_transform": Transform2D( 1, 0, 0, 1, 0, 0 )
}, {
"autotile_coord": Vector2( 4, 1 ),
"one_way": false,
"one_way_margin": 1.0,
"shape": SubResource( 34 ),
"shape_transform": Transform2D( 1, 0, 0, 1, 0, 0 )
}, {
"autotile_coord": Vector2( 3, 1 ),
"one_way": false,
"one_way_margin": 1.0,
"shape": SubResource( 35 ),
"shape_transform": Transform2D( 1, 0, 0, 1, 0, 0 )
}, {
"autotile_coord": Vector2( 2, 1 ),
"one_way": false,
"one_way_margin": 1.0,
"shape": SubResource( 36 ),
"shape_transform": Transform2D( 1, 0, 0, 1, 0, 0 )
}, {
"autotile_coord": Vector2( 1, 1 ),
"one_way": false,
"one_way_margin": 1.0,
"shape": SubResource( 37 ),
"shape_transform": Transform2D( 1, 0, 0, 1, 0, 0 )
}, {
"autotile_coord": Vector2( 0, 1 ),
"one_way": false,
"one_way_margin": 1.0,
"shape": SubResource( 38 ),
"shape_transform": Transform2D( 1, 0, 0, 1, 0, 0 )
}, {
"autotile_coord": Vector2( 0, 2 ),
"one_way": false,
"one_way_margin": 1.0,
"shape": SubResource( 39 ),
"shape_transform": Transform2D( 1, 0, 0, 1, 0, 0 )
}, {
"autotile_coord": Vector2( 1, 2 ),
"one_way": false,
"one_way_margin": 1.0,
"shape": SubResource( 40 ),
"shape_transform": Transform2D( 1, 0, 0, 1, 0, 0 )
}, {
"autotile_coord": Vector2( 2, 2 ),
"one_way": false,
"one_way_margin": 1.0,
"shape": SubResource( 41 ),
"shape_transform": Transform2D( 1, 0, 0, 1, 0, 0 )
}, {
"autotile_coord": Vector2( 3, 2 ),
"one_way": false,
"one_way_margin": 1.0,
"shape": SubResource( 42 ),
"shape_transform": Transform2D( 1, 0, 0, 1, 0, 0 )
}, {
"autotile_coord": Vector2( 4, 2 ),
"one_way": false,
"one_way_margin": 1.0,
"shape": SubResource( 43 ),
"shape_transform": Transform2D( 1, 0, 0, 1, 0, 0 )
}, {
"autotile_coord": Vector2( 5, 2 ),
"one_way": false,
"one_way_margin": 1.0,
"shape": SubResource( 44 ),
"shape_transform": Transform2D( 1, 0, 0, 1, 0, 0 )
} ]
9/z_index = 0
