[gd_resource type="StyleBoxFlat" format=2]

[resource]

content_margin_left = -1.0
content_margin_right = -1.0
content_margin_top = -1.0
content_margin_bottom = -1.0
bg_color = Color( 0.313726, 0.313726, 0.313726, 1 )
draw_center = true
border_width_left = 0
border_width_top = 0
border_width_right = 0
border_width_bottom = 5
border_color = Color( 0.156863, 0.156863, 0.156863, 1 )
border_blend = false
corner_radius_top_left = 10
corner_radius_top_right = 10
corner_radius_bottom_right = 10
corner_radius_bottom_left = 10
corner_detail = 25
expand_margin_left = 0.0
expand_margin_right = 0.0
expand_margin_top = 2.0
expand_margin_bottom = 0.0
shadow_color = Color( 0, 0, 0, 0.470588 )
shadow_size = 3
anti_aliasing = false
anti_aliasing_size = 2
_sections_unfolded = [ "Anti Aliasing", "Border", "Border Width", "Expand Margin", "Shadow" ]

