[gd_scene load_steps=4 format=2]

[ext_resource path="res://planet.gd" type="Script" id=1]
[ext_resource path="res://sprites/p2.png" type="Texture" id=2]

[sub_resource type="CircleShape2D" id=1]
radius = 19.6399

[node name="planet" type="Area2D"]
script = ExtResource( 1 )

[node name="sprite" type="TextureButton" parent="."]
modulate = Color( 0.647059, 0.647059, 0.647059, 1 )
margin_left = -24.0
margin_top = -23.0
margin_right = 24.0
margin_bottom = 23.0
grow_horizontal = 2
grow_vertical = 2
action_mode = 0
texture_normal = ExtResource( 2 )

[node name="CollisionShape2D" type="CollisionShape2D" parent="."]
visible = false
shape = SubResource( 1 )

[node name="lbl_ships" type="Label" parent="."]
margin_left = -20.2202
margin_top = 3.4175
margin_right = 19.7798
margin_bottom = 17.4175
align = 1

[node name="Timer" type="Timer" parent="."]
wait_time = 0.5
autostart = true

[node name="circle" type="Sprite" parent="."]

[connection signal="input_event" from="." to="." method="_on_planet_input_event"]
[connection signal="pressed" from="sprite" to="." method="_on_TextureButton_pressed"]
[connection signal="timeout" from="Timer" to="." method="_on_Timer_timeout"]
