[gd_scene load_steps=6 format=1]

[ext_resource path="res://scripts/powerup_basic_shield.gd" type="Script" id=1]
[ext_resource path="res://sprites/Power-ups/powerupBlue_shield.png" type="Texture" id=2]

[sub_resource type="RectangleShape2D" id=1]

custom_solver_bias = 0.0
extents = Vector2( 16.6852, 16.4573 )

[sub_resource type="Animation" id=2]

resource/name = "iddle"
length = 1.0
loop = false
step = 0.1

[sub_resource type="Animation" id=3]

resource/name = "shine"
length = 1.0
loop = true
step = 0.1
tracks/0/type = "value"
tracks/0/path = NodePath("sprite_shine:energy")
tracks/0/interp = 1
tracks/0/imported = false
tracks/0/keys = { "times":FloatArray( 0, 0.6 ), "transitions":FloatArray( 1, 1 ), "update":0, "values":[ 0.0, 1.0 ] }

[node name="powerup_basic_shield" type="Area2D"]

input/pickable = true
shapes/0/shape = SubResource( 1 )
shapes/0/transform = Matrix32( 2, 0, 0, 2, -0.69931, 0 )
shapes/0/trigger = false
gravity_vec = Vector2( 0, 1 )
gravity = 98.0
linear_damp = 0.1
angular_damp = 1.0
script/script = ExtResource( 1 )

[node name="sprite" type="Sprite" parent="."]

visibility/opacity = 0.7
transform/scale = Vector2( 2, 2 )
texture = ExtResource( 2 )

[node name="sprite_shine" type="Light2D" parent="."]

transform/scale = Vector2( 2, 2 )
enabled = true
editor_only = false
texture = ExtResource( 2 )
offset = Vector2( 0, 0 )
scale = 1.0
color = Color( 1, 1, 1, 1 )
energy = 0.0
mode = 0
range/height = 0.0
range/z_min = -1024
range/z_max = 1024
range/layer_min = 1
range/layer_max = 11
range/item_mask = 1
shadow/enabled = true
shadow/color = Color( 0, 0, 0, 0 )
shadow/buffer_size = 2048
shadow/esm_multiplier = 80.0
shadow/item_mask = 1

[node name="anim" type="AnimationPlayer" parent="."]

playback/process_mode = 0
playback/default_blend_time = 0.0
root/root = NodePath("..")
anims/iddle = SubResource( 2 )
anims/shine = SubResource( 3 )
playback/active = true
playback/speed = 1.5
blend_times = [  ]
autoplay = "shine"

[node name="shape" type="CollisionShape2D" parent="."]

visibility/visible = false
transform/pos = Vector2( -0.69931, 0 )
transform/scale = Vector2( 2, 2 )
shape = SubResource( 1 )
trigger = false
_update_shape_index = 0

[connection signal="area_enter" from="." to="." method="_on_powerup_bonus_area_enter"]


