[gd_scene load_steps=5 format=2]

[ext_resource path="res://scenes & scripts/game.gd" type="Script" id=1]
[ext_resource path="res://scenes & scripts/player.tscn" type="PackedScene" id=2]
[ext_resource path="res://sounds/contemplative-breaks.ogg" type="AudioStream" id=3]
[ext_resource path="res://scenes & scripts/UI.tscn" type="PackedScene" id=4]

[node name="game" type="Node2D"]
script = ExtResource( 1 )

[node name="player" parent="." instance=ExtResource( 2 )]
position = Vector2( 558, 360 )

[node name="AudioStreamPlayer2D" type="AudioStreamPlayer" parent="player"]
stream = ExtResource( 3 )
autoplay = true

[node name="UI" parent="." instance=ExtResource( 4 )]

[connection signal="finished" from="player/AudioStreamPlayer2D" to="." method="_on_AudioStreamPlayer2D_finished"]
