[gd_scene load_steps=11 format=2]

[ext_resource path="res://resources/grounds.tres" type="TileSet" id=1]
[ext_resource path="res://resources/aesthestic.tres" type="TileSet" id=2]
[ext_resource path="res://resources/collision.tres" type="TileSet" id=3]
[ext_resource path="res://map_objects/green_tree.tscn" type="PackedScene" id=4]
[ext_resource path="res://scenes & scripts/enemy_spawner.tscn" type="PackedScene" id=5]
[ext_resource path="res://map_objects/box.tscn" type="PackedScene" id=6]
[ext_resource path="res://scenes & scripts/map_0.gd" type="Script" id=7]
[ext_resource path="res://sprites/light1.png" type="Texture" id=8]
[ext_resource path="res://scenes & scripts/day_night.tscn" type="PackedScene" id=9]

[sub_resource type="NavigationPolygon" id=1]
vertices = PoolVector2Array( 1577, 224, 1588, -373, 1586, 1087, 1574, 278, 1278, 571, 1251, 572, -253, 441, -268, 417, 1283, 626, 1515, 1082, 781, 883, 769, 864, 1081, 678, 1257, 626, 1072, 693, -130, 14, 911, -6, 937, 2, -142, 43, 1467, 1091, -194, 772, -173, 753, 1035, 693, 1054, 702, 363, 780, 725, 904, 747, 915, -386, 1006, -374, 969, -170, 942, 745, 852, 724, 862, 396, 809, 387, 789, 1379, -230, 1337, -206, 1155, -250, 1139, -280, 1433, -171, 1421, -208, 1566, 212, 975, -32, 1342, -132, 1383, -112, 1539, 224, 961, -8, 1421, -134, 1297, 609, 1297, 586, 1537, 281, 1240, 615, 1074, 659, 1234, 594, -262, 467, 895, -33, -140, -18, 656, -153, -132, 907, 715, 885, -146, 933, 1027, 676, -174, 722, -99, 707, 165, 636, 182, 614, 1054, 653, 702, -190, 694, -219, 1117, -212, 1328, -169, 964, -58, 934, -73, 1531, 255, -436, 292, -450, 262, -172, 54, 385, 830, 1452, 1121, 767, 906, 908, -56, 690, -163, -447, 316, -298, 405, 1140, -225, 1036, 659, -61, 668, -73, 641, 146, 644, -144, 885, 363, 838, -75, 694, 1073, 1119, 1054, 1086, 169, 593, 962, 1092, 943, 1122, -559, 1132, -327, 420, -340, 447, -476, 329, 631, -166, 619, -193, 628, -220, -174, -31, -558, -369, -203, 42, -217, 16, -478, 249, 1028, 1067, -292, 486, 146, 580, 991, 1070, -424, 1020, 1088, -226, 1075, -253, 1087, -275, 662, -239, -210, -13, -508, 264, 1115, -290, -460, 1003, -474, 967, 342, 831, 331, 811, 340, 789, -169, 871, 125, 592, 114, 613, 123, 632, -98, 624, -124, 692, -137, 666, -190, 701, -228, 692, -126, 641, -519, 291, -505, 320, -460, 936, -428, 916, -319, 474, -387, 934, -335, 737, -289, 693, -326, 706, -196, 931, -207, 909, -193, 882, -237, 776, -286, 774, -321, 772 )
polygons = [ PoolIntArray( 0, 1, 2 ), PoolIntArray( 3, 0, 2 ), PoolIntArray( 4, 5, 6, 7 ), PoolIntArray( 8, 2, 9, 10, 11 ), PoolIntArray( 12, 13, 8, 14 ), PoolIntArray( 15, 16, 17, 18 ), PoolIntArray( 10, 9, 19 ), PoolIntArray( 20, 21, 22, 23, 24 ), PoolIntArray( 25, 26, 27, 28, 29 ), PoolIntArray( 30, 31, 32, 33 ), PoolIntArray( 34, 35, 36, 37, 1 ), PoolIntArray( 38, 39, 1, 0, 40 ), PoolIntArray( 41, 42, 43, 40, 44, 45 ), PoolIntArray( 46, 38, 40 ), PoolIntArray( 3, 2, 47, 48, 49 ), PoolIntArray( 50, 13, 12, 51 ), PoolIntArray( 6, 5, 52, 53 ), PoolIntArray( 54, 16, 15, 55, 56 ), PoolIntArray( 57, 58, 25, 59 ), PoolIntArray( 60, 22, 21, 61, 62 ), PoolIntArray( 8, 47, 2 ), PoolIntArray( 63, 64, 52, 50, 65 ), PoolIntArray( 66, 67, 68, 35, 69, 70, 71 ), PoolIntArray( 18, 17, 72, 49, 4, 73, 74, 75 ), PoolIntArray( 32, 31, 58, 76 ), PoolIntArray( 10, 19, 77, 78 ), PoolIntArray( 43, 46, 40 ), PoolIntArray( 69, 42, 41, 70 ), PoolIntArray( 49, 48, 4 ), PoolIntArray( 66, 71, 79, 80 ), PoolIntArray( 80, 79, 54, 56 ), PoolIntArray( 45, 44, 72, 17 ), PoolIntArray( 81, 73, 4, 7, 82 ), PoolIntArray( 83, 36, 35 ), PoolIntArray( 1, 39, 34 ), PoolIntArray( 84, 60, 85, 86, 87 ), PoolIntArray( 58, 57, 88, 89 ), PoolIntArray( 90, 85, 60 ), PoolIntArray( 77, 91, 92 ), PoolIntArray( 52, 64, 93 ), PoolIntArray( 94, 95, 96 ), PoolIntArray( 81, 82, 97 ), PoolIntArray( 81, 97, 98, 99 ), PoolIntArray( 8, 11, 30, 23 ), PoolIntArray( 100, 56, 55 ), PoolIntArray( 101, 100, 55 ), PoolIntArray( 102, 101, 55, 103, 104 ), PoolIntArray( 105, 75, 74 ), PoolIntArray( 106, 105, 74, 107 ), PoolIntArray( 26, 78, 77, 108 ), PoolIntArray( 109, 53, 52, 110 ), PoolIntArray( 27, 26, 111, 94, 96, 112 ), PoolIntArray( 68, 83, 35 ), PoolIntArray( 113, 68, 67 ), PoolIntArray( 114, 113, 67 ), PoolIntArray( 115, 114, 67, 116 ), PoolIntArray( 104, 117, 106, 107, 118 ), PoolIntArray( 1, 37, 119 ), PoolIntArray( 104, 1, 119 ), PoolIntArray( 104, 119, 115, 116 ), PoolIntArray( 104, 116, 102 ), PoolIntArray( 104, 103, 117 ), PoolIntArray( 50, 51, 65 ), PoolIntArray( 63, 65, 84, 87 ), PoolIntArray( 77, 92, 108 ), PoolIntArray( 26, 108, 111 ), PoolIntArray( 120, 112, 96 ), PoolIntArray( 121, 120, 96 ), PoolIntArray( 89, 76, 58 ), PoolIntArray( 122, 89, 88 ), PoolIntArray( 123, 122, 88 ), PoolIntArray( 124, 123, 88, 125 ), PoolIntArray( 52, 93, 110 ), PoolIntArray( 109, 110, 126 ), PoolIntArray( 109, 126, 127 ), PoolIntArray( 109, 127, 128, 86, 129 ), PoolIntArray( 62, 90, 60 ), PoolIntArray( 130, 62, 61 ), PoolIntArray( 131, 130, 61, 132 ), PoolIntArray( 131, 132, 133, 134 ), PoolIntArray( 104, 118, 135 ), PoolIntArray( 96, 104, 135 ), PoolIntArray( 121, 96, 135, 136, 137 ), PoolIntArray( 138, 137, 136, 99, 98, 139 ), PoolIntArray( 140, 138, 139, 109, 141 ), PoolIntArray( 134, 133, 142, 109, 129 ), PoolIntArray( 128, 87, 86 ), PoolIntArray( 109, 142, 143 ), PoolIntArray( 29, 59, 25 ), PoolIntArray( 144, 29, 28 ), PoolIntArray( 145, 144, 28, 140 ), PoolIntArray( 146, 145, 140 ), PoolIntArray( 24, 124, 125, 20 ), PoolIntArray( 30, 33, 24, 23 ), PoolIntArray( 20, 125, 146, 140, 147 ), PoolIntArray( 23, 14, 8 ), PoolIntArray( 148, 147, 140 ), PoolIntArray( 149, 148, 140 ), PoolIntArray( 141, 149, 140 ), PoolIntArray( 141, 109, 143 ) ]
outlines = [ PoolVector2Array( 1586, 1087, 1588, -373, -558, -369, -559, 1132, 943, 1122, 962, 1092, 991, 1070, 1028, 1067, 1054, 1086, 1073, 1119, 1452, 1121, 1467, 1091, 1515, 1082 ), PoolVector2Array( 1574, 278, 1537, 281, 1531, 255, 1539, 224, 1566, 212, 1577, 224 ), PoolVector2Array( 1251, 572, 1234, 594, 1240, 615, 1257, 626, 1283, 626, 1297, 609, 1297, 586, 1278, 571 ), PoolVector2Array( 1054, 653, 1074, 659, 1081, 678, 1072, 693, 1054, 702, 1035, 693, 1027, 676, 1036, 659 ), PoolVector2Array( 745, 852, 769, 864, 781, 883, 767, 906, 747, 915, 725, 904, 715, 885, 724, 862 ), PoolVector2Array( 363, 838, 385, 830, 396, 809, 387, 789, 363, 780, 340, 789, 331, 811, 342, 831 ), PoolVector2Array( 146, 580, 169, 593, 182, 614, 165, 636, 146, 644, 123, 632, 114, 613, 125, 592 ), PoolVector2Array( -169, 871, -144, 885, -132, 907, -146, 933, -170, 942, -196, 931, -207, 909, -193, 882 ), PoolVector2Array( -98, 624, -73, 641, -61, 668, -75, 694, -99, 707, -124, 692, -137, 666, -126, 641 ), PoolVector2Array( -424, 1020, -386, 1006, -374, 969, -387, 934, -428, 916, -460, 936, -474, 967, -460, 1003 ), PoolVector2Array( -476, 329, -447, 316, -436, 292, -450, 262, -478, 249, -508, 264, -519, 291, -505, 320 ), PoolVector2Array( -292, 486, -262, 467, -253, 441, -268, 417, -298, 405, -327, 420, -340, 447, -319, 474 ), PoolVector2Array( 1383, -112, 1421, -134, 1433, -171, 1421, -208, 1379, -230, 1337, -206, 1328, -169, 1342, -132 ), PoolVector2Array( 937, 2, 961, -8, 975, -32, 964, -58, 934, -73, 908, -56, 895, -33, 911, -6 ), PoolVector2Array( 1115, -290, 1139, -280, 1155, -250, 1140, -225, 1117, -212, 1088, -226, 1075, -253, 1087, -275 ), PoolVector2Array( 662, -239, 694, -219, 702, -190, 690, -163, 656, -153, 631, -166, 619, -193, 628, -220 ), PoolVector2Array( -172, 54, -142, 43, -130, 14, -140, -18, -174, -31, -210, -13, -217, 16, -203, 42 ), PoolVector2Array( -289, 693, -326, 706, -335, 737, -321, 772, -286, 774, -237, 776, -194, 772, -173, 753, -174, 722, -190, 701, -228, 692 ) ]

[node name="map_0" type="Navigation2D"]
script = ExtResource( 7 )
menu_image_path = "res://sprites/forest.jpg"
description = "Floresta"
level = 1

[node name="ground" type="TileMap" parent="."]
tile_set = ExtResource( 1 )
cell_quadrant_size = 2
cell_custom_transform = Transform2D( 0, 0, 0, 0, 0, 0 )
collision_friction = 0.0
bake_navigation = true
format = 1
tile_data = PoolIntArray( -851990, -1610612627, 0, -851989, -1610612627, 0, -851988, -1610612627, 0, -851987, -1610612627, 0, -851986, -1610612627, 0, -851985, -1610612627, 0, -851984, -1610612627, 0, -851983, -1610612627, 0, -851982, -1610612627, 0, -851981, -1610612627, 0, -851980, -1610612627, 0, -851979, -1610612627, 0, -851978, -1610612627, 0, -851977, -1610612627, 0, -851976, -1610612627, 0, -851975, -1610612627, 0, -851974, -1610612627, 0, -851973, -1610612627, 0, -851972, -1610612627, 0, -851971, -1610612627, 0, -851970, -1610612627, 0, -851969, -1610612627, 0, -917504, -1610612627, 0, -917503, -1610612627, 0, -917502, -1610612627, 0, -917501, -1610612627, 0, -917500, -1610612627, 0, -917499, -1610612627, 0, -917498, -1610612627, 0, -917497, -1610612627, 0, -917496, -1610612627, 0, -917495, -1610612627, 0, -917494, -1610612627, 0, -917493, -1610612627, 0, -917492, -1610612627, 0, -917491, -1610612627, 0, -917490, -1610612627, 0, -917489, -1610612627, 0, -917488, -1610612627, 0, -917487, -1610612627, 0, -917486, -1610612627, 0, -917485, -1610612627, 0, -917484, -1610612627, 0, -917483, -1610612627, 0, -917482, -1610612627, 0, -917481, -1610612627, 0, -917480, -1610612627, 0, -917479, -1610612627, 0, -917478, -1610612627, 0, -917477, -1610612627, 0, -917476, -1610612627, 0, -917475, -1610612627, 0, -917474, -1610612627, 0, -917473, -1610612627, 0, -917472, -1610612627, 0, -917471, -1610612627, 0, -917470, -1610612627, 0, -786454, -1610612627, 0, -786453, -1610612627, 0, -786452, -1610612627, 0, -786451, -1610612627, 0, -786450, -1610612627, 0, -786449, -1610612627, 0, -786448, -1610612627, 0, -786447, -1610612627, 0, -786446, -1610612627, 0, -786445, -1610612627, 0, -786444, -1610612627, 0, -786443, -1610612627, 0, -786442, -1610612627, 0, -786441, -1610612627, 0, -786440, -1610612627, 0, -786439, -1610612627, 0, -786438, -1610612627, 0, -786437, -1610612627, 0, -786436, -1610612627, 0, -786435, -1610612627, 0, -786434, -1610612627, 0, -786433, -1610612627, 0, -851968, -1610612627, 0, -851967, -1610612627, 0, -851966, -1610612627, 0, -851965, -1610612627, 0, -851964, -1610612627, 0, -851963, -1610612627, 0, -851962, -1610612627, 0, -851961, -1610612627, 0, -851960, -1610612627, 0, -851959, -1610612627, 0, -851958, -1610612627, 0, -851957, -1610612627, 0, -851956, -1610612627, 0, -851955, -1610612627, 0, -851954, -1610612627, 0, -851953, -1610612627, 0, -851952, -1610612627, 0, -851951, -1610612627, 0, -851950, -1610612627, 0, -851949, -1610612627, 0, -851948, -1610612627, 0, -851947, -1610612627, 0, -851946, -1610612627, 0, -851945, -1610612627, 0, -851944, -1610612627, 0, -851943, -1610612627, 0, -851942, -1610612627, 0, -851941, -1610612627, 0, -851940, -1610612627, 0, -851939, -1610612627, 0, -851938, -1610612627, 0, -851937, -1610612627, 0, -851936, -1610612627, 0, -851935, -1610612627, 0, -851934, -1610612627, 0, -720918, -1610612627, 0, -720917, -1610612627, 0, -720916, -1610612627, 0, -720915, -1610612627, 0, -720914, -1610612627, 0, -720913, -1610612627, 0, -720912, -1610612627, 0, -720911, -1610612627, 0, -720910, -1610612627, 0, -720909, -1610612627, 0, -720908, -1610612627, 0, -720907, -1610612627, 0, -720906, -1610612627, 0, -720905, -1610612627, 0, -720904, -1610612627, 0, -720903, -1610612627, 0, -720902, -1610612627, 0, -720901, -1610612627, 0, -720900, -1610612627, 0, -720899, -1610612627, 0, -720898, -1610612627, 0, -720897, -1610612627, 0, -786432, -1610612627, 0, -786431, -1610612627, 0, -786430, -1610612627, 0, -786429, -1610612627, 0, -786428, -1610612627, 0, -786427, -1610612627, 0, -786426, -1610612627, 0, -786425, -1610612627, 0, -786424, -1610612627, 0, -786423, -1610612627, 0, -786422, -1610612627, 0, -786421, -1610612627, 0, -786420, -1610612627, 0, -786419, -1610612627, 0, -786418, -1610612627, 0, -786417, -1610612627, 0, -786416, -1610612627, 0, -786415, -1610612627, 0, -786414, -1610612627, 0, -786413, -1610612627, 0, -786412, -1610612627, 0, -786411, -1610612627, 0, -786410, -1610612627, 0, -786409, -1610612627, 0, -786408, -1610612627, 0, -786407, -1610612627, 0, -786406, -1610612627, 0, -786405, -1610612627, 0, -786404, -1610612627, 0, -786403, -1610612627, 0, -786402, -1610612627, 0, -786401, -1610612627, 0, -786400, -1610612627, 0, -786399, -1610612627, 0, -786398, -1610612627, 0, -655382, -1610612627, 0, -655381, -1610612627, 0, -655380, -1610612627, 0, -655379, -1610612627, 0, -655378, -1610612627, 0, -655377, -1610612627, 0, -655376, -1610612627, 0, -655375, -1610612627, 0, -655374, -1610612627, 0, -655373, -1610612627, 0, -655372, -1610612627, 0, -655371, -1610612627, 0, -655370, -1610612627, 0, -655369, -1610612627, 0, -655368, -1610612627, 0, -655367, -1610612627, 0, -655366, -1610612627, 0, -655365, -1610612627, 0, -655364, -1610612627, 0, -655363, -1610612627, 0, -655362, -1610612627, 0, -655361, -1610612627, 0, -720896, -1610612627, 0, -720895, -1610612627, 0, -720894, -1610612627, 0, -720893, -1610612627, 0, -720892, -1610612627, 0, -720891, -1610612627, 0, -720890, -1610612627, 0, -720889, -1610612627, 0, -720888, -1610612627, 0, -720887, -1610612627, 0, -720886, -1610612627, 0, -720885, -1610612627, 0, -720884, -1610612627, 0, -720883, -1610612627, 0, -720882, -1610612627, 0, -720881, -1610612627, 0, -720880, -1610612627, 0, -720879, -1610612627, 0, -720878, -1610612627, 0, -720877, -1610612627, 0, -720876, -1610612627, 0, -720875, -1610612627, 0, -720874, -1610612627, 0, -720873, -1610612627, 0, -720872, -1610612627, 0, -720871, -1610612627, 0, -720870, -1610612627, 0, -720869, -1610612627, 0, -720868, -1610612627, 0, -720867, -1610612627, 0, -720866, -1610612627, 0, -720865, -1610612627, 0, -720864, -1610612627, 0, -720863, -1610612627, 0, -720862, -1610612627, 0, -589846, -1610612627, 0, -589845, -1610612627, 0, -589844, -1610612627, 0, -589843, -1610612627, 0, -589842, -1610612627, 0, -589841, -1610612627, 0, -589840, -1610612627, 0, -589839, -1610612627, 0, -589838, -1610612627, 0, -589837, -1610612627, 0, -589836, -1610612627, 0, -589835, -1610612627, 0, -589834, -1610612627, 0, -589833, -1610612627, 0, -589832, -1610612627, 0, -589831, -1610612627, 0, -589830, -1610612627, 0, -589829, -1610612627, 0, -589828, -1610612627, 0, -589827, -1610612627, 0, -589826, -1610612627, 0, -589825, -1610612627, 0, -655360, -1610612627, 0, -655359, -1610612627, 0, -655358, -1610612627, 0, -655357, -1610612627, 0, -655356, -1610612627, 0, -655355, -1610612627, 0, -655354, -1610612627, 0, -655353, -1610612627, 0, -655352, -1610612627, 0, -655351, -1610612627, 0, -655350, -1610612627, 0, -655349, -1610612627, 0, -655348, -1610612627, 0, -655347, -1610612627, 0, -655346, -1610612627, 0, -655345, -1610612627, 0, -655344, -1610612627, 0, -655343, -1610612627, 0, -655342, -1610612627, 0, -655341, -1610612627, 0, -655340, -1610612627, 0, -655339, -1610612627, 0, -655338, -1610612627, 0, -655337, -1610612627, 0, -655336, -1610612627, 0, -655335, -1610612627, 0, -655334, -1610612627, 0, -655333, -1610612627, 0, -655332, -1610612627, 0, -655331, -1610612627, 0, -655330, -1610612627, 0, -655329, -1610612627, 0, -655328, -1610612627, 0, -655327, -1610612627, 0, -655326, -1610612627, 0, -524310, -1610612627, 0, -524309, -1610612627, 0, -524308, -1610612627, 0, -524307, -1610612627, 0, -524306, -1610612627, 0, -524305, -1610612627, 0, -524304, -1610612627, 0, -524303, -1610612627, 0, -524302, -1610612627, 0, -524301, -1610612627, 0, -524300, -1610612627, 0, -524299, -1610612627, 0, -524298, -1610612627, 0, -524297, -1610612627, 0, -524296, -1610612627, 0, -524295, -1610612627, 0, -524294, -1610612627, 0, -524293, -1610612627, 0, -524292, -1610612627, 0, -524291, -1610612627, 0, -524290, -1610612627, 0, -524289, -1610612627, 0, -589824, -1610612627, 0, -589823, -1610612627, 0, -589822, -1610612627, 0, -589821, -1610612627, 0, -589820, -1610612627, 0, -589819, -1610612627, 0, -589818, -1610612627, 0, -589817, -1610612627, 0, -589816, -1610612627, 0, -589815, -1610612627, 0, -589814, -1610612627, 0, -589813, -1610612627, 0, -589812, -1610612627, 0, -589811, -1610612627, 0, -589810, -1610612627, 0, -589809, -1610612627, 0, -589808, -1610612627, 0, -589807, -1610612627, 0, -589806, -1610612627, 0, -589805, -1610612627, 0, -589804, -1610612627, 0, -589803, -1610612627, 0, -589802, -1610612627, 0, -589801, -1610612627, 0, -589800, -1610612627, 0, -589799, -1610612627, 0, -589798, -1610612627, 0, -589797, -1610612627, 0, -589796, -1610612627, 0, -589795, -1610612627, 0, -589794, -1610612627, 0, -589793, -1610612627, 0, -589792, -1610612627, 0, -589791, -1610612627, 0, -589790, -1610612627, 0, -458774, -1610612627, 0, -458773, -1610612627, 0, -458772, -1610612627, 0, -458771, -1610612627, 0, -458770, -1610612627, 0, -458769, -1610612627, 0, -458768, -1610612627, 0, -458767, -1610612627, 0, -458766, -1610612627, 0, -458765, -1610612627, 0, -458764, -1610612627, 0, -458763, -1610612627, 0, -458762, 106, 0, -458761, 106, 0, -458760, 106, 0, -458759, 106, 0, -458758, 106, 0, -458757, 106, 0, -458756, 106, 0, -458755, 106, 0, -458754, 106, 0, -458753, 106, 0, -524288, 106, 0, -524287, 106, 0, -524286, 106, 0, -524285, 106, 0, -524284, 106, 0, -524283, 106, 0, -524282, 106, 0, -524281, 106, 0, -524280, 106, 0, -524279, 106, 0, -524278, 106, 0, -524277, 106, 0, -524276, 106, 0, -524275, 106, 0, -524274, 106, 0, -524273, 106, 0, -524272, 106, 0, -524271, 106, 0, -524270, 106, 0, -524269, 106, 0, -524268, 106, 0, -524267, 106, 0, -524266, 106, 0, -524265, 106, 0, -524264, 106, 0, -524263, 106, 0, -524262, 106, 0, -524261, 106, 0, -524260, 106, 0, -524259, -1610612627, 0, -524258, -1610612627, 0, -524257, -1610612627, 0, -524256, -1610612627, 0, -524255, -1610612627, 0, -524254, -1610612627, 0, -393238, -1610612627, 0, -393237, -1610612627, 0, -393236, -1610612627, 0, -393235, -1610612627, 0, -393234, -1610612627, 0, -393233, -1610612627, 0, -393232, -1610612627, 0, -393231, -1610612627, 0, -393230, -1610612627, 0, -393229, -1610612627, 0, -393228, -1610612627, 0, -393227, -1610612627, 0, -393226, 106, 0, -393225, 106, 0, -393224, 106, 0, -393223, 108, 0, -393222, 106, 0, -393221, 106, 0, -393220, 106, 0, -393219, 106, 0, -393218, 106, 0, -393217, 106, 0, -458752, 106, 0, -458751, 106, 0, -458750, 106, 0, -458749, 106, 0, -458748, 106, 0, -458747, 106, 0, -458746, 106, 0, -458745, 106, 0, -458744, 106, 0, -458743, 106, 0, -458742, 106, 0, -458741, 106, 0, -458740, 106, 0, -458739, 106, 0, -458738, 109, 0, -458737, 109, 0, -458736, 109, 0, -458735, 106, 0, -458734, 106, 0, -458733, 106, 0, -458732, 106, 0, -458731, 106, 0, -458730, 106, 0, -458729, 106, 0, -458728, 106, 0, -458727, 106, 0, -458726, 106, 0, -458725, 106, 0, -458724, 106, 0, -458723, -1610612627, 0, -458722, -1610612627, 0, -458721, -1610612627, 0, -458720, -1610612627, 0, -458719, -1610612627, 0, -458718, -1610612627, 0, -327702, -1610612627, 0, -327701, -1610612627, 0, -327700, -1610612627, 0, -327699, -1610612627, 0, -327698, -1610612627, 0, -327697, -1610612627, 0, -327696, -1610612627, 0, -327695, -1610612627, 0, -327694, -1610612627, 0, -327693, -1610612627, 0, -327692, -1610612627, 0, -327691, -1610612627, 0, -327690, 106, 0, -327689, 106, 0, -327688, 108, 0, -327687, 106, 0, -327686, 106, 0, -327685, 106, 0, -327684, 106, 0, -327683, 106, 0, -327682, 109, 0, -327681, 106, 0, -393216, 106, 0, -393215, 106, 0, -393214, 106, 0, -393213, 106, 0, -393212, 106, 0, -393211, 106, 0, -393210, 106, 0, -393209, 106, 0, -393208, 106, 0, -393207, 109, 0, -393206, 109, 0, -393205, 109, 0, -393204, 109, 0, -393203, 109, 0, -393202, 106, 0, -393201, 108, 0, -393200, 108, 0, -393199, 109, 0, -393198, 109, 0, -393197, 108, 0, -393196, 108, 0, -393195, 108, 0, -393194, 108, 0, -393193, 108, 0, -393192, 108, 0, -393191, 108, 0, -393190, 108, 0, -393189, 106, 0, -393188, 106, 0, -393187, -1610612627, 0, -393186, -1610612627, 0, -393185, -1610612627, 0, -393184, -1610612627, 0, -393183, -1610612627, 0, -393182, -1610612627, 0, -262166, -1610612627, 0, -262165, -1610612627, 0, -262164, -1610612627, 0, -262163, -1610612627, 0, -262162, -1610612627, 0, -262161, -1610612627, 0, -262160, -1610612627, 0, -262159, -1610612627, 0, -262158, -1610612627, 0, -262157, -1610612627, 0, -262156, -1610612627, 0, -262155, -1610612627, 0, -262154, 106, 0, -262153, 108, 0, -262152, 106, 0, -262151, 106, 0, -262150, 106, 0, -262149, 106, 0, -262148, 106, 0, -262147, 109, 0, -262146, 108, 0, -262145, 109, 0, -327680, 106, 0, -327679, 109, 0, -327678, 109, 0, -327677, 109, 0, -327676, 109, 0, -327675, 109, 0, -327674, 109, 0, -327673, 109, 0, -327672, 109, 0, -327671, 106, 0, -327670, 106, 0, -327669, 106, 0, -327668, 106, 0, -327667, 106, 0, -327666, 106, 0, -327665, 106, 0, -327664, 106, 0, -327663, 106, 0, -327662, 106, 0, -327661, 109, 0, -327660, 106, 0, -327659, 106, 0, -327658, 109, 0, -327657, 109, 0, -327656, 109, 0, -327655, 109, 0, -327654, 109, 0, -327653, 106, 0, -327652, 106, 0, -327651, -1610612627, 0, -327650, -1610612627, 0, -327649, -1610612627, 0, -327648, -1610612627, 0, -327647, -1610612627, 0, -327646, -1610612627, 0, -196630, -1610612627, 0, -196629, -1610612627, 0, -196628, -1610612627, 0, -196627, -1610612627, 0, -196626, -1610612627, 0, -196625, -1610612627, 0, -196624, -1610612627, 0, -196623, -1610612627, 0, -196622, -1610612627, 0, -196621, -1610612627, 0, -196620, -1610612627, 0, -196619, -1610612627, 0, -196618, 106, 0, -196617, 108, 0, -196616, 108, 0, -196615, 108, 0, -196614, 108, 0, -196613, 108, 0, -196612, 108, 0, -196611, 109, 0, -196610, 106, 0, -196609, 108, 0, -262144, 109, 0, -262143, 109, 0, -262142, 109, 0, -262141, 109, 0, -262140, 106, 0, -262139, 106, 0, -262138, 106, 0, -262137, 106, 0, -262136, 106, 0, -262135, 106, 0, -262134, 106, 0, -262133, 106, 0, -262132, 106, 0, -262131, 106, 0, -262130, 106, 0, -262129, 106, 0, -262128, 106, 0, -262127, 106, 0, -262126, 106, 0, -262125, 109, 0, -262124, 109, 0, -262123, 109, 0, -262122, 109, 0, -262121, 109, 0, -262120, 106, 0, -262119, 108, 0, -262118, 109, 0, -262117, 109, 0, -262116, 106, 0, -262115, -1610612627, 0, -262114, -1610612627, 0, -262113, -1610612627, 0, -262112, -1610612627, 0, -262111, -1610612627, 0, -262110, -1610612627, 0, -131094, -1610612627, 0, -131093, -1610612627, 0, -131092, -1610612627, 0, -131091, -1610612627, 0, -131090, -1610612627, 0, -131089, -1610612627, 0, -131088, -1610612627, 0, -131087, -1610612627, 0, -131086, -1610612627, 0, -131085, -1610612627, 0, -131084, -1610612627, 0, -131083, -1610612627, 0, -131082, 106, 0, -131081, 106, 0, -131080, 106, 0, -131079, 106, 0, -131078, 106, 0, -131077, 106, 0, -131076, 106, 0, -131075, 109, 0, -131074, 108, 0, -131073, 108, 0, -196608, 108, 0, -196607, 109, 0, -196606, 107, 0, -196605, 106, 0, -196604, 109, 0, -196603, 106, 0, -196602, 106, 0, -196601, 106, 0, -196600, 106, 0, -196599, 106, 0, -196598, 106, 0, -196597, 106, 0, -196596, 106, 0, -196595, 106, 0, -196594, 106, 0, -196593, 106, 0, -196592, 106, 0, -196591, 106, 0, -196590, 106, 0, -196589, 109, 0, -196588, 106, 0, -196587, 109, 0, -196586, 106, 0, -196585, 109, 0, -196584, 109, 0, -196583, 106, 0, -196582, 109, 0, -196581, 109, 0, -196580, 106, 0, -196579, -1610612627, 0, -196578, -1610612627, 0, -196577, -1610612627, 0, -196576, -1610612627, 0, -196575, -1610612627, 0, -196574, -1610612627, 0, -65558, -1610612627, 0, -65557, -1610612627, 0, -65556, -1610612627, 0, -65555, -1610612627, 0, -65554, -1610612627, 0, -65553, -1610612627, 0, -65552, -1610612627, 0, -65551, -1610612627, 0, -65550, -1610612627, 0, -65549, -1610612627, 0, -65548, -1610612627, 0, -65547, -1610612627, 0, -65546, 106, 0, -65545, 106, 0, -65544, 106, 0, -65543, 106, 0, -65542, 106, 0, -65541, 109, 0, -65540, 109, 0, -65539, 108, 0, -65538, 108, 0, -65537, 106, 0, -131072, 108, 0, -131071, 109, 0, -131070, 106, 0, -131069, 107, 0, -131068, 109, 0, -131067, 109, 0, -131066, 109, 0, -131065, 106, 0, -131064, 106, 0, -131063, 106, 0, -131062, 106, 0, -131061, 106, 0, -131060, 106, 0, -131059, 106, 0, -131058, 106, 0, -131057, 106, 0, -131056, 106, 0, -131055, 106, 0, -131054, 109, 0, -131053, 106, 0, -131052, 106, 0, -131051, 109, 0, -131050, 106, 0, -131049, 106, 0, -131048, 108, 0, -131047, 109, 0, -131046, 109, 0, -131045, 109, 0, -131044, 106, 0, -131043, -1610612627, 0, -131042, -1610612627, 0, -131041, -1610612627, 0, -131040, -1610612627, 0, -131039, -1610612627, 0, -131038, -1610612627, 0, -22, -1610612627, 0, -21, -1610612627, 0, -20, -1610612627, 0, -19, -1610612627, 0, -18, -1610612627, 0, -17, -1610612627, 0, -16, -1610612627, 0, -15, -1610612627, 0, -14, -1610612627, 0, -13, -1610612627, 0, -12, -1610612627, 0, -11, -1610612627, 0, -10, 106, 0, -9, 106, 0, -8, 106, 0, -7, 109, 0, -6, 109, 0, -5, 108, 0, -4, 109, 0, -3, 108, 0, -2, 107, 0, -1, 108, 0, -65536, 106, 0, -65535, 109, 0, -65534, 109, 0, -65533, 109, 0, -65532, 109, 0, -65531, 109, 0, -65530, 106, 0, -65529, 106, 0, -65528, 106, 0, -65527, 106, 0, -65526, 106, 0, -65525, 106, 0, -65524, 107, 0, -65523, 107, 0, -65522, 106, 0, -65521, 106, 0, -65520, 106, 0, -65519, 108, 0, -65518, 109, 0, -65517, 106, 0, -65516, 109, 0, -65515, 106, 0, -65514, 106, 0, -65513, 106, 0, -65512, 106, 0, -65511, 108, 0, -65510, 106, 0, -65509, 109, 0, -65508, 106, 0, -65507, -1610612627, 0, -65506, -1610612627, 0, -65505, -1610612627, 0, -65504, -1610612627, 0, -65503, -1610612627, 0, -65502, -1610612627, 0, 65514, -1610612627, 0, 65515, -1610612627, 0, 65516, -1610612627, 0, 65517, -1610612627, 0, 65518, -1610612627, 0, 65519, -1610612627, 0, 65520, -1610612627, 0, 65521, -1610612627, 0, 65522, -1610612627, 0, 65523, -1610612627, 0, 65524, -1610612627, 0, 65525, -1610612627, 0, 65526, 106, 0, 65527, 106, 0, 65528, 106, 0, 65529, 109, 0, 65530, 108, 0, 65531, 108, 0, 65532, 106, 0, 65533, 109, 0, 65534, 108, 0, 65535, 109, 0, 0, 109, 0, 1, 109, 0, 2, 109, 0, 3, 106, 0, 4, 107, 0, 5, 109, 0, 6, 106, 0, 7, 106, 0, 8, 106, 0, 9, 106, 0, 10, 106, 0, 11, 107, 0, 12, 106, 0, 13, 107, 0, 14, 106, 0, 15, 106, 0, 16, 106, 0, 17, 108, 0, 18, 109, 0, 19, 109, 0, 20, 107, 0, 21, 107, 0, 22, 106, 0, 23, 106, 0, 24, 108, 0, 25, 108, 0, 26, 106, 0, 27, 106, 0, 28, 109, 0, 29, -1610612627, 0, 30, -1610612627, 0, 31, -1610612627, 0, 32, -1610612627, 0, 33, -1610612627, 0, 34, -1610612627, 0, 131050, -1610612627, 0, 131051, -1610612627, 0, 131052, -1610612627, 0, 131053, -1610612627, 0, 131054, -1610612627, 0, 131055, -1610612627, 0, 131056, -1610612627, 0, 131057, -1610612627, 0, 131058, -1610612627, 0, 131059, -1610612627, 0, 131060, -1610612627, 0, 131061, -1610612627, 0, 131062, 106, 0, 131063, 106, 0, 131064, 108, 0, 131065, 109, 0, 131066, 108, 0, 131067, 106, 0, 131068, 107, 0, 131069, 109, 0, 131070, 109, 0, 131071, 109, 0, 65536, 106, 0, 65537, 109, 0, 65538, 108, 0, 65539, 109, 0, 65540, 109, 0, 65541, 109, 0, 65542, 106, 0, 65543, 108, 0, 65544, 108, 0, 65545, 106, 0, 65546, 107, 0, 65547, 106, 0, 65548, 106, 0, 65549, 107, 0, 65550, 106, 0, 65551, 106, 0, 65552, 106, 0, 65553, 106, 0, 65554, 108, 0, 65555, 106, 0, 65556, 106, 0, 65557, 107, 0, 65558, 107, 0, 65559, 106, 0, 65560, 108, 0, 65561, 108, 0, 65562, 106, 0, 65563, 109, 0, 65564, 109, 0, 65565, -1610612627, 0, 65566, -1610612627, 0, 65567, -1610612627, 0, 65568, -1610612627, 0, 65569, -1610612627, 0, 65570, -1610612627, 0, 196586, -1610612627, 0, 196587, -1610612627, 0, 196588, -1610612627, 0, 196589, -1610612627, 0, 196590, -1610612627, 0, 196591, -1610612627, 0, 196592, -1610612627, 0, 196593, -1610612627, 0, 196594, -1610612627, 0, 196595, -1610612627, 0, 196596, -1610612627, 0, 196597, -1610612627, 0, 196598, 106, 0, 196599, 108, 0, 196600, 108, 0, 196601, 109, 0, 196602, 106, 0, 196603, 106, 0, 196604, 108, 0, 196605, 109, 0, 196606, 109, 0, 196607, 109, 0, 131072, 108, 0, 131073, 109, 0, 131074, 109, 0, 131075, 109, 0, 131076, 109, 0, 131077, 107, 0, 131078, 107, 0, 131079, 108, 0, 131080, 106, 0, 131081, 108, 0, 131082, 108, 0, 131083, 106, 0, 131084, 106, 0, 131085, 107, 0, 131086, 106, 0, 131087, 106, 0, 131088, 106, 0, 131089, 106, 0, 131090, 108, 0, 131091, 106, 0, 131092, 106, 0, 131093, 106, 0, 131094, 107, 0, 131095, 106, 0, 131096, 108, 0, 131097, 109, 0, 131098, 109, 0, 131099, 106, 0, 131100, 106, 0, 131101, -1610612627, 0, 131102, -1610612627, 0, 131103, -1610612627, 0, 131104, -1610612627, 0, 131105, -1610612627, 0, 131106, -1610612627, 0, 262122, -1610612627, 0, 262123, -1610612627, 0, 262124, -1610612627, 0, 262125, -1610612627, 0, 262126, -1610612627, 0, 262127, -1610612627, 0, 262128, -1610612627, 0, 262129, -1610612627, 0, 262130, -1610612627, 0, 262131, -1610612627, 0, 262132, -1610612627, 0, 262133, -1610612627, 0, 262134, 108, 0, 262135, 108, 0, 262136, 106, 0, 262137, 109, 0, 262138, 109, 0, 262139, 109, 0, 262140, 109, 0, 262141, 109, 0, 262142, 109, 0, 262143, 109, 0, 196608, 109, 0, 196609, 108, 0, 196610, 109, 0, 196611, 109, 0, 196612, 107, 0, 196613, 109, 0, 196614, 107, 0, 196615, 109, 0, 196616, 109, 0, 196617, 109, 0, 196618, 107, 0, 196619, 108, 0, 196620, 106, 0, 196621, 107, 0, 196622, 109, 0, 196623, 109, 0, 196624, 109, 0, 196625, 106, 0, 196626, 108, 0, 196627, 108, 0, 196628, 106, 0, 196629, 107, 0, 196630, 106, 0, 196631, 109, 0, 196632, 109, 0, 196633, 106, 0, 196634, 106, 0, 196635, 106, 0, 196636, 106, 0, 196637, -1610612627, 0, 196638, -1610612627, 0, 196639, -1610612627, 0, 196640, -1610612627, 0, 196641, -1610612627, 0, 196642, -1610612627, 0, 327658, -1610612627, 0, 327659, -1610612627, 0, 327660, -1610612627, 0, 327661, -1610612627, 0, 327662, -1610612627, 0, 327663, -1610612627, 0, 327664, -1610612627, 0, 327665, -1610612627, 0, 327666, -1610612627, 0, 327667, -1610612627, 0, 327668, -1610612627, 0, 327669, -1610612627, 0, 327670, 106, 0, 327671, 106, 0, 327672, 106, 0, 327673, 106, 0, 327674, 108, 0, 327675, 109, 0, 327676, 108, 0, 327677, 106, 0, 327678, 109, 0, 327679, 106, 0, 262144, 109, 0, 262145, 106, 0, 262146, 106, 0, 262147, 109, 0, 262148, 109, 0, 262149, 109, 0, 262150, 109, 0, 262151, 109, 0, 262152, 109, 0, 262153, 106, 0, 262154, 109, 0, 262155, 109, 0, 262156, 108, 0, 262157, 108, 0, 262158, 106, 0, 262159, 109, 0, 262160, 106, 0, 262161, 109, 0, 262162, 109, 0, 262163, 109, 0, 262164, 106, 0, 262165, 109, 0, 262166, 109, 0, 262167, 108, 0, 262168, 106, 0, 262169, 107, 0, 262170, 107, 0, 262171, 106, 0, 262172, 106, 0, 262173, -1610612627, 0, 262174, -1610612627, 0, 262175, -1610612627, 0, 262176, -1610612627, 0, 262177, -1610612627, 0, 262178, -1610612627, 0, 393194, -1610612627, 0, 393195, -1610612627, 0, 393196, -1610612627, 0, 393197, -1610612627, 0, 393198, -1610612627, 0, 393199, -1610612627, 0, 393200, -1610612627, 0, 393201, -1610612627, 0, 393202, -1610612627, 0, 393203, -1610612627, 0, 393204, -1610612627, 0, 393205, -1610612627, 0, 393206, 106, 0, 393207, 106, 0, 393208, 106, 0, 393209, 108, 0, 393210, 109, 0, 393211, 106, 0, 393212, 106, 0, 393213, 106, 0, 393214, 106, 0, 393215, 109, 0, 327680, 109, 0, 327681, 109, 0, 327682, 109, 0, 327683, 107, 0, 327684, 109, 0, 327685, 109, 0, 327686, 109, 0, 327687, 106, 0, 327688, 106, 0, 327689, 109, 0, 327690, 108, 0, 327691, 106, 0, 327692, 109, 0, 327693, 107, 0, 327694, 108, 0, 327695, 106, 0, 327696, 109, 0, 327697, 106, 0, 327698, 108, 0, 327699, 18, 0, 327700, 18, 0, 327701, 18, 0, 327702, 18, 0, 327703, 18, 0, 327704, 18, 0, 327705, 18, 0, 327706, 18, 0, 327707, 18, 0, 327708, 18, 0, 327709, 18, 0, 327710, 18, 0, 327711, 18, 0, 327712, 18, 0, 327713, 18, 0, 327714, 18, 0, 458730, -1610612627, 0, 458731, -1610612627, 0, 458732, -1610612627, 0, 458733, -1610612627, 0, 458734, -1610612627, 0, 458735, -1610612627, 0, 458736, -1610612627, 0, 458737, -1610612627, 0, 458738, -1610612627, 0, 458739, -1610612627, 0, 458740, -1610612627, 0, 458741, -1610612627, 0, 458742, 106, 0, 458743, 106, 0, 458744, 106, 0, 458745, 106, 0, 458746, 109, 0, 458747, 106, 0, 458748, 108, 0, 458749, 106, 0, 458750, 106, 0, 458751, 109, 0, 393216, 109, 0, 393217, 109, 0, 393218, 109, 0, 393219, 109, 0, 393220, 109, 0, 393221, 108, 0, 393222, 108, 0, 393223, 106, 0, 393224, 106, 0, 393225, 109, 0, 393226, 106, 0, 393227, 108, 0, 393228, 109, 0, 393229, 108, 0, 393230, 109, 0, 393231, 109, 0, 393232, 109, 0, 393233, 109, 0, 393234, 109, 0, 393235, -1610612701, 0, 393236, -1610612709, 0, 393237, -1610612709, 0, 393238, -1610612709, 0, 393239, -1610612709, 0, 393240, -1610612709, 0, 393241, -1610612709, 0, 393242, -1610612709, 0, 393243, -1610612709, 0, 393244, -1610612709, 0, 393245, -1610612709, 0, 393246, -1610612709, 0, 393247, -1610612709, 0, 393248, -1610612709, 0, 393249, -1610612709, 0, 393250, -1610612709, 0, 524266, -1610612627, 0, 524267, -1610612627, 0, 524268, -1610612627, 0, 524269, -1610612627, 0, 524270, -1610612627, 0, 524271, -1610612627, 0, 524272, -1610612627, 0, 524273, -1610612627, 0, 524274, -1610612627, 0, 524275, -1610612627, 0, 524276, -1610612627, 0, 524277, -1610612627, 0, 524278, 106, 0, 524279, 106, 0, 524280, 106, 0, 524281, 106, 0, 524282, 106, 0, 524283, 109, 0, 524284, 108, 0, 524285, 108, 0, 524286, 108, 0, 524287, 106, 0, 458752, 109, 0, 458753, 109, 0, 458754, 109, 0, 458755, 109, 0, 458756, 109, 0, 458757, 107, 0, 458758, 106, 0, 458759, 108, 0, 458760, 109, 0, 458761, 109, 0, 458762, 109, 0, 458763, 109, 0, 458764, 109, 0, 458765, 109, 0, 458766, 108, 0, 458767, 108, 0, 458768, 108, 0, 458769, 108, 0, 458770, 108, 0, 458771, 1610612754, 0, 458772, 1610612754, 0, 458773, 1610612754, 0, 458774, 1610612754, 0, 458775, 1610612754, 0, 458776, 1610612754, 0, 458777, 1610612754, 0, 458778, 1610612754, 0, 458779, 1610612754, 0, 458780, 1610612754, 0, 458781, 1610612754, 0, 458782, 1610612754, 0, 458783, 1610612754, 0, 458784, 1610612754, 0, 458785, 1610612754, 0, 458786, 1610612754, 0, 589802, -1610612627, 0, 589803, -1610612627, 0, 589804, -1610612627, 0, 589805, -1610612627, 0, 589806, -1610612627, 0, 589807, -1610612627, 0, 589808, -1610612627, 0, 589809, -1610612627, 0, 589810, -1610612627, 0, 589811, -1610612627, 0, 589812, -1610612627, 0, 589813, -1610612627, 0, 589814, 106, 0, 589815, 106, 0, 589816, 106, 0, 589817, 106, 0, 589818, 106, 0, 589819, 109, 0, 589820, 108, 0, 589821, 106, 0, 589822, 108, 0, 589823, 108, 0, 524288, 109, 0, 524289, 109, 0, 524290, 107, 0, 524291, 107, 0, 524292, 108, 0, 524293, 109, 0, 524294, 109, 0, 524295, 106, 0, 524296, 109, 0, 524297, 109, 0, 524298, 109, 0, 524299, 109, 0, 524300, 109, 0, 524301, 109, 0, 524302, 106, 0, 524303, 106, 0, 524304, 108, 0, 524305, 108, 0, 524306, 108, 0, 524307, 108, 0, 524308, 108, 0, 524309, 109, 0, 524310, 109, 0, 524311, 108, 0, 524312, 108, 0, 524313, 106, 0, 524314, 106, 0, 524315, 109, 0, 524316, 106, 0, 524317, -1610612627, 0, 524318, -1610612627, 0, 524319, -1610612627, 0, 524320, -1610612627, 0, 524321, -1610612627, 0, 524322, -1610612627, 0, 655338, -1610612627, 0, 655339, -1610612627, 0, 655340, -1610612627, 0, 655341, -1610612627, 0, 655342, -1610612627, 0, 655343, -1610612627, 0, 655344, -1610612627, 0, 655345, -1610612627, 0, 655346, -1610612627, 0, 655347, -1610612627, 0, 655348, -1610612627, 0, 655349, -1610612627, 0, 655350, 106, 0, 655351, 106, 0, 655352, 106, 0, 655353, 106, 0, 655354, 106, 0, 655355, 109, 0, 655356, 108, 0, 655357, 108, 0, 655358, 106, 0, 655359, 106, 0, 589824, 108, 0, 589825, 109, 0, 589826, 109, 0, 589827, 106, 0, 589828, 108, 0, 589829, 106, 0, 589830, 109, 0, 589831, 106, 0, 589832, 109, 0, 589833, 109, 0, 589834, 109, 0, 589835, 106, 0, 589836, 109, 0, 589837, 108, 0, 589838, 109, 0, 589839, 109, 0, 589840, 109, 0, 589841, 109, 0, 589842, 109, 0, 589843, 109, 0, 589844, 109, 0, 589845, 106, 0, 589846, 106, 0, 589847, 106, 0, 589848, 106, 0, 589849, 106, 0, 589850, 106, 0, 589851, 109, 0, 589852, 106, 0, 589853, -1610612627, 0, 589854, -1610612627, 0, 589855, -1610612627, 0, 589856, -1610612627, 0, 589857, -1610612627, 0, 589858, -1610612627, 0, 720874, -1610612627, 0, 720875, -1610612627, 0, 720876, -1610612627, 0, 720877, -1610612627, 0, 720878, -1610612627, 0, 720879, -1610612627, 0, 720880, -1610612627, 0, 720881, -1610612627, 0, 720882, -1610612627, 0, 720883, -1610612627, 0, 720884, -1610612627, 0, 720885, -1610612627, 0, 720886, 106, 0, 720887, 106, 0, 720888, 106, 0, 720889, 106, 0, 720890, 109, 0, 720891, 106, 0, 720892, 108, 0, 720893, 106, 0, 720894, 106, 0, 720895, 106, 0, 655360, 106, 0, 655361, 109, 0, 655362, 109, 0, 655363, 109, 0, 655364, 109, 0, 655365, 109, 0, 655366, 109, 0, 655367, 109, 0, 655368, 108, 0, 655369, 106, 0, 655370, 106, 0, 655371, 106, 0, 655372, 109, 0, 655373, 107, 0, 655374, 107, 0, 655375, 107, 0, 655376, 106, 0, 655377, 106, 0, 655378, 106, 0, 655379, 108, 0, 655380, 108, 0, 655381, 106, 0, 655382, 106, 0, 655383, 106, 0, 655384, 106, 0, 655385, 109, 0, 655386, 109, 0, 655387, 106, 0, 655388, 107, 0, 655389, -1610612627, 0, 655390, -1610612627, 0, 655391, -1610612627, 0, 655392, -1610612627, 0, 655393, -1610612627, 0, 655394, -1610612627, 0, 786410, -1610612627, 0, 786411, -1610612627, 0, 786412, -1610612627, 0, 786413, -1610612627, 0, 786414, -1610612627, 0, 786415, -1610612627, 0, 786416, -1610612627, 0, 786417, -1610612627, 0, 786418, -1610612627, 0, 786419, -1610612627, 0, 786420, -1610612627, 0, 786421, -1610612627, 0, 786422, 108, 0, 786423, 108, 0, 786424, 106, 0, 786425, 106, 0, 786426, 109, 0, 786427, 106, 0, 786428, 106, 0, 786429, 106, 0, 786430, 106, 0, 786431, 106, 0, 720896, 106, 0, 720897, 106, 0, 720898, 106, 0, 720899, 109, 0, 720900, 109, 0, 720901, 109, 0, 720902, 109, 0, 720903, 108, 0, 720904, 106, 0, 720905, 106, 0, 720906, 106, 0, 720907, 109, 0, 720908, 109, 0, 720909, 106, 0, 720910, 106, 0, 720911, 106, 0, 720912, 107, 0, 720913, 107, 0, 720914, 109, 0, 720915, 109, 0, 720916, 108, 0, 720917, 106, 0, 720918, 106, 0, 720919, 106, 0, 720920, 109, 0, 720921, 106, 0, 720922, 106, 0, 720923, 106, 0, 720924, 107, 0, 720925, -1610612627, 0, 720926, -1610612627, 0, 720927, -1610612627, 0, 720928, -1610612627, 0, 720929, -1610612627, 0, 720930, -1610612627, 0, 851946, -1610612627, 0, 851947, -1610612627, 0, 851948, -1610612627, 0, 851949, -1610612627, 0, 851950, -1610612627, 0, 851951, -1610612627, 0, 851952, -1610612627, 0, 851953, -1610612627, 0, 851954, -1610612627, 0, 851955, -1610612627, 0, 851956, -1610612627, 0, 851957, -1610612627, 0, 851958, 106, 0, 851959, 108, 0, 851960, 108, 0, 851961, 108, 0, 851962, 109, 0, 851963, 106, 0, 851964, 106, 0, 851965, 106, 0, 851966, 108, 0, 851967, 108, 0, 786432, 106, 0, 786433, 106, 0, 786434, 108, 0, 786435, 106, 0, 786436, 108, 0, 786437, 106, 0, 786438, 109, 0, 786439, 109, 0, 786440, 109, 0, 786441, 109, 0, 786442, 109, 0, 786443, 107, 0, 786444, 107, 0, 786445, 107, 0, 786446, 107, 0, 786447, 107, 0, 786448, 106, 0, 786449, 106, 0, 786450, 109, 0, 786451, 109, 0, 786452, 109, 0, 786453, 109, 0, 786454, 109, 0, 786455, 109, 0, 786456, 106, 0, 786457, 106, 0, 786458, 106, 0, 786459, 106, 0, 786460, 106, 0, 786461, -1610612627, 0, 786462, -1610612627, 0, 786463, -1610612627, 0, 786464, -1610612627, 0, 786465, -1610612627, 0, 786466, -1610612627, 0, 917482, -1610612627, 0, 917483, -1610612627, 0, 917484, -1610612627, 0, 917485, -1610612627, 0, 917486, -1610612627, 0, 917487, -1610612627, 0, 917488, -1610612627, 0, 917489, -1610612627, 0, 917490, -1610612627, 0, 917491, -1610612627, 0, 917492, -1610612627, 0, 917493, -1610612627, 0, 917494, 106, 0, 917495, 106, 0, 917496, 106, 0, 917497, 106, 0, 917498, 109, 0, 917499, 109, 0, 917500, 108, 0, 917501, 108, 0, 917502, 108, 0, 917503, 108, 0, 851968, 108, 0, 851969, 108, 0, 851970, -1610612627, 0, 851971, -1610612627, 0, 851972, 109, 0, 851973, 106, 0, 851974, 106, 0, 851975, 108, 0, 851976, 106, 0, 851977, 109, 0, 851978, 109, 0, 851979, 109, 0, 851980, 106, 0, 851981, 106, 0, 851982, 106, 0, 851983, 106, 0, 851984, 106, 0, 851985, 106, 0, 851986, 106, 0, 851987, 106, 0, 851988, 107, 0, 851989, 109, 0, 851990, 109, 0, 851991, 106, 0, 851992, 106, 0, 851993, 106, 0, 851994, 106, 0, 851995, 106, 0, 851996, 106, 0, 851997, -1610612627, 0, 851998, -1610612627, 0, 851999, -1610612627, 0, 852000, -1610612627, 0, 852001, -1610612627, 0, 852002, -1610612627, 0, 983018, -1610612627, 0, 983019, -1610612627, 0, 983020, -1610612627, 0, 983021, -1610612627, 0, 983022, -1610612627, 0, 983023, -1610612627, 0, 983024, -1610612627, 0, 983025, -1610612627, 0, 983026, -1610612627, 0, 983027, -1610612627, 0, 983028, -1610612627, 0, 983029, -1610612627, 0, 983030, 106, 0, 983031, 106, 0, 983032, 106, 0, 983033, 106, 0, 983034, 109, 0, 983035, 109, 0, 983036, 108, 0, 983037, 108, 0, 983038, 108, 0, 983039, 108, 0, 917504, 108, 0, 917505, 108, 0, 917506, 109, 0, 917507, 109, 0, 917508, 106, 0, 917509, 109, 0, 917510, 106, 0, 917511, 108, 0, 917512, 108, 0, 917513, 109, 0, 917514, 106, 0, 917515, 109, 0, 917516, 109, 0, 917517, 106, 0, 917518, 109, 0, 917519, 109, 0, 917520, 109, 0, 917521, 109, 0, 917522, 109, 0, 917523, 109, 0, 917524, 109, 0, 917525, 109, 0, 917526, 109, 0, 917527, 109, 0, 917528, 106, 0, 917529, 106, 0, 917530, 106, 0, 917531, 106, 0, 917532, 106, 0, 917533, -1610612627, 0, 917534, -1610612627, 0, 917535, -1610612627, 0, 917536, -1610612627, 0, 917537, -1610612627, 0, 917538, -1610612627, 0, 1048554, -1610612627, 0, 1048555, -1610612627, 0, 1048556, -1610612627, 0, 1048557, -1610612627, 0, 1048558, -1610612627, 0, 1048559, -1610612627, 0, 1048560, -1610612627, 0, 1048561, -1610612627, 0, 1048562, -1610612627, 0, 1048563, -1610612627, 0, 1048564, -1610612627, 0, 1048565, -1610612627, 0, 1048566, 106, 0, 1048567, 106, 0, 1048568, 106, 0, 1048569, 106, 0, 1048570, 106, 0, 1048571, 109, 0, 1048572, 109, 0, 1048573, 109, 0, 1048574, 106, 0, 1048575, 106, 0, 983040, 109, 0, 983041, 109, 0, 983042, 17, 0, 983043, 1610612771, 0, 983044, 1610612753, 0, 983045, 106, 0, 983046, 109, 0, 983047, 106, 0, 983048, 109, 0, 983049, 106, 0, 983050, 106, 0, 983051, 106, 0, 983052, 106, 0, 983053, 109, 0, 983054, 109, 0, 983055, 106, 0, 983056, 106, 0, 983057, 106, 0, 983058, 109, 0, 983059, 109, 0, 983060, 109, 0, 983061, 109, 0, 983062, 109, 0, 983063, 107, 0, 983064, 106, 0, 983065, 106, 0, 983066, 106, 0, 983067, 106, 0, 983068, 106, 0, 983069, -1610612627, 0, 983070, -1610612627, 0, 983071, -1610612627, 0, 983072, -1610612627, 0, 983073, -1610612627, 0, 983074, -1610612627, 0, 1114090, -1610612627, 0, 1114091, -1610612627, 0, 1114092, -1610612627, 0, 1114093, -1610612627, 0, 1114094, -1610612627, 0, 1114095, -1610612627, 0, 1114096, -1610612627, 0, 1114097, -1610612627, 0, 1114098, -1610612627, 0, 1114099, -1610612627, 0, 1114100, -1610612627, 0, 1114101, -1610612627, 0, 1114102, 106, 0, 1114103, 106, 0, 1114104, 106, 0, 1114105, 106, 0, 1114106, 106, 0, 1114107, 106, 0, 1114108, 106, 0, 1114109, 106, 0, 1114110, 109, 0, 1114111, 109, 0, 1048576, 106, 0, 1048577, 106, 0, 1048578, 17, 0, 1048579, 27, 0, 1048580, 1610612753, 0, 1048581, 108, 0, 1048582, 108, 0, 1048583, 109, 0, 1048584, 106, 0, 1048585, 106, 0, 1048586, 106, 0, 1048587, 106, 0, 1048588, 106, 0, 1048589, 106, 0, 1048590, 106, 0, 1048591, 109, 0, 1048592, 109, 0, 1048593, 109, 0, 1048594, 106, 0, 1048595, 106, 0, 1048596, 106, 0, 1048597, 106, 0, 1048598, 106, 0, 1048599, 106, 0, 1048600, 107, 0, 1048601, 107, 0, 1048602, 107, 0, 1048603, 107, 0, 1048604, 107, 0, 1048605, -1610612627, 0, 1048606, -1610612627, 0, 1048607, -1610612627, 0, 1048608, -1610612627, 0, 1048609, -1610612627, 0, 1048610, -1610612627, 0, 1179626, -1610612627, 0, 1179627, -1610612627, 0, 1179628, -1610612627, 0, 1179629, -1610612627, 0, 1179630, -1610612627, 0, 1179631, -1610612627, 0, 1179632, -1610612627, 0, 1179633, -1610612627, 0, 1179634, -1610612627, 0, 1179635, -1610612627, 0, 1179636, -1610612627, 0, 1179637, -1610612627, 0, 1179638, 106, 0, 1179639, 106, 0, 1179640, 106, 0, 1179641, 106, 0, 1179642, 106, 0, 1179643, 106, 0, 1179644, 106, 0, 1179645, 106, 0, 1179646, 106, 0, 1179647, 106, 0, 1114112, 106, 0, 1114113, 106, 0, 1114114, 17, 0, 1114115, 27, 0, 1114116, -1610612718, 0, 1114117, -1610612727, 0, 1114118, 106, 0, 1114119, 106, 0, 1114120, 106, 0, 1114121, 106, 0, 1114122, 106, 0, 1114123, 106, 0, 1114124, 106, 0, 1114125, 106, 0, 1114126, 106, 0, 1114127, 106, 0, 1114128, 106, 0, 1114129, 106, 0, 1114130, 106, 0, 1114131, 106, 0, 1114132, 106, 0, 1114133, 106, 0, 1114134, 106, 0, 1114135, 106, 0, 1114136, 106, 0, 1114137, 106, 0, 1114138, 106, 0, 1114139, 106, 0, 1114140, 106, 0, 1114141, -1610612627, 0, 1114142, -1610612627, 0, 1114143, -1610612627, 0, 1114144, -1610612627, 0, 1114145, -1610612627, 0, 1114146, -1610612627, 0, 1245162, -1610612627, 0, 1245163, -1610612627, 0, 1245164, -1610612627, 0, 1245165, -1610612627, 0, 1245166, -1610612627, 0, 1245167, -1610612627, 0, 1245168, -1610612627, 0, 1245169, -1610612627, 0, 1245170, -1610612627, 0, 1245171, -1610612627, 0, 1245172, -1610612627, 0, 1245173, -1610612627, 0, 1245174, -1610612627, 0, 1245175, -1610612627, 0, 1245176, -1610612627, 0, 1245177, -1610612627, 0, 1245178, -1610612627, 0, 1245179, 106, 0, 1245180, 106, 0, 1245181, 106, 0, 1245182, 106, 0, 1245183, 106, 0, 1179648, 106, 0, 1179649, 106, 0, 1179650, 17, 0, 1179651, 27, 0, 1179652, -1610612718, 0, 1179653, -1610612727, 0, 1179654, 106, 0, 1179655, 106, 0, 1179656, 106, 0, 1179657, 106, 0, 1179658, 106, 0, 1179659, 106, 0, 1179660, 106, 0, 1179661, 106, 0, 1179662, 106, 0, 1179663, 106, 0, 1179664, 106, 0, 1179665, 106, 0, 1179666, 106, 0, 1179667, 106, 0, 1179668, 106, 0, 1179669, 106, 0, 1179670, 106, 0, 1179671, 106, 0, 1179672, 106, 0, 1179673, 106, 0, 1179674, 106, 0, 1179675, 106, 0, 1179676, 106, 0, 1179677, -1610612627, 0, 1179678, -1610612627, 0, 1179679, -1610612627, 0, 1179680, -1610612627, 0, 1179681, -1610612627, 0, 1179682, -1610612627, 0, 1310698, -1610612627, 0, 1310699, -1610612627, 0, 1310700, -1610612627, 0, 1310701, -1610612627, 0, 1310702, -1610612627, 0, 1310703, -1610612627, 0, 1310704, -1610612627, 0, 1310705, -1610612627, 0, 1310706, -1610612627, 0, 1310707, -1610612627, 0, 1310708, -1610612627, 0, 1310709, -1610612627, 0, 1310710, -1610612627, 0, 1310711, -1610612627, 0, 1310712, -1610612627, 0, 1310713, -1610612627, 0, 1310714, -1610612627, 0, 1310715, -1610612627, 0, 1310716, -1610612627, 0, 1310717, -1610612627, 0, 1310718, -1610612627, 0, 1310719, -1610612627, 0, 1245184, -1610612627, 0, 1245185, -1610612627, 0, 1245186, -1073741806, 0, 1245187, 27, 0, 1245188, -1610612718, 0, 1245189, -1610612627, 0, 1245190, -1610612627, 0, 1245191, -1610612627, 0, 1245192, -1610612627, 0, 1245193, -1610612627, 0, 1245194, -1610612627, 0, 1245195, -1610612627, 0, 1245196, -1610612627, 0, 1245197, -1610612627, 0, 1245198, -1610612627, 0, 1245199, -1610612627, 0, 1245200, -1610612627, 0, 1245201, -1610612627, 0, 1245202, -1610612627, 0, 1245203, -1610612627, 0, 1245204, -1610612627, 0, 1245205, -1610612627, 0, 1245206, -1610612627, 0, 1245207, -1610612627, 0, 1245208, -1610612627, 0, 1245209, -1610612627, 0, 1245210, -1610612627, 0, 1245211, -1610612627, 0, 1245212, -1610612627, 0, 1245213, -1610612627, 0, 1245214, -1610612627, 0, 1245215, -1610612627, 0, 1245216, -1610612627, 0, 1245217, -1610612627, 0, 1245218, -1610612627, 0, 1376234, -1610612627, 0, 1376235, -1610612627, 0, 1376236, -1610612627, 0, 1376237, -1610612627, 0, 1376238, -1610612627, 0, 1376239, -1610612627, 0, 1376240, -1610612627, 0, 1376241, -1610612627, 0, 1376242, -1610612627, 0, 1376243, -1610612627, 0, 1376244, -1610612627, 0, 1376245, -1610612627, 0, 1376246, -1610612627, 0, 1376247, -1610612627, 0, 1376248, -1610612627, 0, 1376249, -1610612627, 0, 1376250, -1610612627, 0, 1376251, -1610612627, 0, 1376252, -1610612627, 0, 1376253, -1610612627, 0, 1376254, -1610612627, 0, 1376255, -1610612627, 0, 1310720, -1610612627, 0, 1310721, -1610612627, 0, 1310722, -1073741806, 0, 1310723, 27, 0, 1310724, -1610612718, 0, 1310725, -1610612627, 0, 1310726, -1610612627, 0, 1310727, -1610612627, 0, 1310728, -1610612627, 0, 1310729, -1610612627, 0, 1310730, -1610612627, 0, 1310731, -1610612627, 0, 1310732, -1610612627, 0, 1310733, -1610612627, 0, 1310734, -1610612627, 0, 1310735, -1610612627, 0, 1310736, -1610612627, 0, 1310737, -1610612627, 0, 1310738, -1610612627, 0, 1310739, -1610612627, 0, 1310740, -1610612627, 0, 1310741, -1610612627, 0, 1310742, -1610612627, 0, 1310743, -1610612627, 0, 1310744, -1610612627, 0, 1310745, -1610612627, 0, 1310746, -1610612627, 0, 1310747, -1610612627, 0, 1310748, -1610612627, 0, 1310749, -1610612627, 0, 1310750, -1610612627, 0, 1310751, -1610612627, 0, 1310752, -1610612627, 0, 1310753, -1610612627, 0, 1310754, -1610612627, 0, 1441770, -1610612627, 0, 1441771, -1610612627, 0, 1441772, -1610612627, 0, 1441773, -1610612627, 0, 1441774, -1610612627, 0, 1441775, -1610612627, 0, 1441776, -1610612627, 0, 1441777, -1610612627, 0, 1441778, -1610612627, 0, 1441779, -1610612627, 0, 1441780, -1610612627, 0, 1441781, -1610612627, 0, 1441782, -1610612627, 0, 1441783, -1610612627, 0, 1441784, -1610612627, 0, 1441785, -1610612627, 0, 1441786, -1610612627, 0, 1441787, -1610612627, 0, 1441788, -1610612627, 0, 1441789, -1610612627, 0, 1441790, -1610612627, 0, 1441791, -1610612627, 0, 1376256, -1610612627, 0, 1376257, -1610612627, 0, 1376258, -1073741806, 0, 1376259, 27, 0, 1376260, -1610612718, 0, 1376261, -1610612627, 0, 1376262, -1610612627, 0, 1376263, -1610612627, 0, 1376264, -1610612627, 0, 1376265, -1610612627, 0, 1376266, -1610612627, 0, 1376267, -1610612627, 0, 1376268, -1610612627, 0, 1376269, -1610612627, 0, 1376270, -1610612627, 0, 1376271, -1610612627, 0, 1376272, -1610612627, 0, 1376273, -1610612627, 0, 1376274, -1610612627, 0, 1376275, -1610612627, 0, 1376276, -1610612627, 0, 1376277, -1610612627, 0, 1376278, -1610612627, 0, 1376279, -1610612627, 0, 1376280, -1610612627, 0, 1376281, -1610612627, 0, 1376282, -1610612627, 0, 1376283, -1610612627, 0, 1376284, -1610612627, 0, 1376285, -1610612627, 0, 1376286, -1610612627, 0, 1376287, -1610612627, 0, 1376288, -1610612627, 0, 1376289, -1610612627, 0, 1376290, -1610612627, 0, 1507306, -1610612627, 0, 1507307, -1610612627, 0, 1507308, -1610612627, 0, 1507309, -1610612627, 0, 1507310, -1610612627, 0, 1507311, -1610612627, 0, 1507312, -1610612627, 0, 1507313, -1610612627, 0, 1507314, -1610612627, 0, 1507315, -1610612627, 0, 1507316, -1610612627, 0, 1507317, -1610612627, 0, 1507318, -1610612627, 0, 1507319, -1610612627, 0, 1507320, -1610612627, 0, 1507321, -1610612627, 0, 1507322, -1610612627, 0, 1507323, -1610612627, 0, 1507324, -1610612627, 0, 1507325, -1610612627, 0, 1507326, -1610612627, 0, 1507327, -1610612627, 0, 1441792, -1610612627, 0, 1441793, -1610612627, 0, 1441794, -1073741806, 0, 1441795, 27, 0, 1441796, -1610612718, 0, 1441797, -1610612627, 0, 1441798, -1610612627, 0, 1441799, -1610612627, 0, 1441800, -1610612627, 0, 1441801, -1610612627, 0, 1441802, -1610612627, 0, 1441803, -1610612627, 0, 1441804, -1610612627, 0, 1441805, -1610612627, 0, 1441806, -1610612627, 0, 1441807, -1610612627, 0, 1441808, -1610612627, 0, 1441809, -1610612627, 0, 1441810, -1610612627, 0, 1441811, -1610612627, 0, 1441812, -1610612627, 0, 1441813, -1610612627, 0, 1441814, -1610612627, 0, 1441815, -1610612627, 0, 1441816, -1610612627, 0, 1441817, -1610612627, 0, 1441818, -1610612627, 0, 1441819, -1610612627, 0, 1441820, -1610612627, 0, 1441821, -1610612627, 0, 1441822, -1610612627, 0, 1441823, -1610612627, 0, 1441824, -1610612627, 0, 1441825, -1610612627, 0, 1441826, -1610612627, 0, 1572842, -1610612627, 0, 1572843, -1610612627, 0, 1572844, -1610612627, 0, 1572845, -1610612627, 0, 1572846, -1610612627, 0, 1572847, -1610612627, 0, 1572848, -1610612627, 0, 1572849, -1610612627, 0, 1572850, -1610612627, 0, 1572851, -1610612627, 0, 1572852, -1610612627, 0, 1572853, -1610612627, 0, 1572854, -1610612627, 0, 1572855, -1610612627, 0, 1572856, -1610612627, 0, 1572857, -1610612627, 0, 1572858, -1610612627, 0, 1572859, -1610612627, 0, 1572860, -1610612627, 0, 1572861, -1610612627, 0, 1572862, -1610612627, 0, 1572863, -1610612627, 0, 1507328, -1610612627, 0, 1507329, -1610612627, 0, 1507330, -1073741806, 0, 1507331, 27, 0, 1507332, -1610612718, 0, 1507333, -1610612627, 0, 1507334, -1610612627, 0, 1507335, -1610612627, 0, 1507336, -1610612627, 0, 1507337, -1610612627, 0, 1507338, -1610612627, 0, 1507339, -1610612627, 0, 1507340, -1610612627, 0, 1507341, -1610612627, 0, 1507342, -1610612627, 0, 1507343, -1610612627, 0, 1507344, -1610612627, 0, 1507345, -1610612627, 0, 1507346, -1610612627, 0, 1507347, -1610612627, 0, 1507348, -1610612627, 0, 1507349, -1610612627, 0, 1507350, -1610612627, 0, 1507351, -1610612627, 0, 1507352, -1610612627, 0, 1507353, -1610612627, 0, 1507354, -1610612627, 0, 1507355, -1610612627, 0, 1507356, -1610612627, 0, 1507357, -1610612627, 0, 1507358, -1610612627, 0, 1507359, -1610612627, 0, 1507360, -1610612627, 0, 1507361, -1610612627, 0, 1507362, -1610612627, 0, 1638378, -1610612627, 0, 1638379, -1610612627, 0, 1638380, -1610612627, 0, 1638381, -1610612627, 0, 1638382, -1610612627, 0, 1638383, -1610612627, 0, 1638384, -1610612627, 0, 1638385, -1610612627, 0, 1638386, -1610612627, 0, 1638387, -1610612627, 0, 1638388, -1610612627, 0, 1638389, -1610612627, 0, 1638390, -1610612627, 0, 1638391, -1610612627, 0, 1638392, -1610612627, 0, 1638393, -1610612627, 0, 1638394, -1610612627, 0, 1638395, -1610612627, 0, 1638396, -1610612627, 0, 1638397, -1610612627, 0, 1638398, -1610612627, 0, 1638399, -1610612627, 0, 1572864, -1610612627, 0, 1572865, -1610612627, 0, 1572866, -1073741806, 0, 1572867, 27, 0, 1572868, -1610612718, 0, 1572869, -1610612627, 0, 1572870, -1610612627, 0, 1572871, -1610612627, 0, 1572872, -1610612627, 0, 1572873, -1610612627, 0, 1572874, -1610612627, 0, 1572875, -1610612627, 0, 1572876, -1610612627, 0, 1572877, -1610612627, 0, 1572878, -1610612627, 0, 1572879, -1610612627, 0, 1572880, -1610612627, 0, 1572881, -1610612627, 0, 1572882, -1610612627, 0, 1572883, -1610612627, 0, 1572884, -1610612627, 0, 1572885, -1610612627, 0, 1572886, -1610612627, 0, 1572887, -1610612627, 0, 1572888, -1610612627, 0, 1572889, -1610612627, 0, 1572890, -1610612627, 0, 1572891, -1610612627, 0, 1572892, -1610612627, 0, 1572893, -1610612627, 0, 1572894, -1610612627, 0, 1572895, -1610612627, 0, 1572896, -1610612627, 0, 1572897, -1610612627, 0, 1572898, -1610612627, 0, 1703914, -1610612627, 0, 1703915, -1610612627, 0, 1703916, -1610612627, 0, 1703917, -1610612627, 0, 1703918, -1610612627, 0, 1703919, -1610612627, 0, 1703920, -1610612627, 0, 1703921, -1610612627, 0, 1703922, -1610612627, 0, 1703923, -1610612627, 0, 1703924, -1610612627, 0, 1703925, -1610612627, 0, 1703926, -1610612627, 0, 1703927, -1610612627, 0, 1703928, -1610612627, 0, 1703929, -1610612627, 0, 1703930, -1610612627, 0, 1703931, -1610612627, 0, 1703932, -1610612627, 0, 1703933, -1610612627, 0, 1703934, -1610612627, 0, 1703935, -1610612627, 0, 1638400, -1610612627, 0, 1638401, -1610612627, 0, 1638402, -1073741806, 0, 1638403, 27, 0, 1638404, -1610612718, 0, 1638405, -1610612627, 0, 1638406, -1610612627, 0, 1638407, -1610612627, 0, 1638408, -1610612627, 0, 1638409, -1610612627, 0, 1638410, -1610612627, 0, 1638411, -1610612627, 0, 1638412, -1610612627, 0, 1638413, -1610612627, 0, 1638414, -1610612627, 0, 1638415, -1610612627, 0, 1638416, -1610612627, 0, 1638417, -1610612627, 0, 1638418, -1610612627, 0, 1638419, -1610612627, 0, 1638420, -1610612627, 0, 1638421, -1610612627, 0, 1638422, -1610612627, 0, 1638423, -1610612627, 0, 1638424, -1610612627, 0, 1638425, -1610612627, 0, 1638426, -1610612627, 0, 1638427, -1610612627, 0, 1638428, -1610612627, 0, 1638429, -1610612627, 0, 1638430, -1610612627, 0, 1638431, -1610612627, 0, 1638432, -1610612627, 0, 1638433, -1610612627, 0, 1638434, -1610612627, 0 )

[node name="aesthestic" type="TileMap" parent="."]
tile_set = ExtResource( 2 )
cell_quadrant_size = 2
collision_friction = 0.0
bake_navigation = true
format = 1
tile_data = PoolIntArray( -131067, -1610612729, 0, -65531, -1073741817, 0, 15, -1610612729, 0, 131077, -1073741816, 0, 131083, -1610612729, 0, 131090, -1073741816, 0, 196610, 4, 0, 196614, 1610612744, 0, 262146, -1610612729, 0, 262150, 1610612744, 0, 262151, 1610612744, 0, 262156, -1073741806, 0, 262157, -1073741807, 0, 262167, 1610612753, 0, 262168, 18, 0, 327696, -1610612728, 0, 327698, -1073741798, 0, 327699, -1610612728, 0, 327700, -1610612728, 0, 327703, -1610612719, 0, 327706, 1610612767, 0, 393224, 7, 0, 393230, -1610612728, 0, 393234, -1610612728, 0, 393235, -1073741816, 0, 393236, -1073741816, 0, 393241, -1073741794, 0, 393242, -1073741793, 0, 458764, -1610612729, 0, 458766, 7, 0, 458767, -1610612728, 0, 458770, -1610612728, 0, 458771, -1073741816, 0, 458772, -1073741799, 0, 458774, -1073741793, 0, 458778, -1073741793, 0, 524290, 4, 0, 524306, -1073741816, 0, 524307, -1610612728, 0, 589839, -1610612728, 0, 655362, -1073741806, 0, 655363, -1073741807, 0, 655370, -1610612732, 0, 720898, 7, 0, 720905, -1610612728, 0, 720906, -1610612732, 0, 720911, -1610612728, 0, 720918, -1073741817, 0, 786438, 4, 0, 786446, 7, 0, 851979, -1610612728, 0, 917506, 26, 0, 917516, -1610612728, 0, 917522, -1073741817, 0, 983042, 25, 0, 983046, -1073741817, 0, 1048579, -1073741816, 0, 1048580, -1073741816, 0, 1048588, -1073741817, 0, 1114114, -1073741793, 0, 1114115, -1073741816, 0, 1114116, -1073741816, 0, 1114117, -1073741798, 0, 1245187, -1073741818, 0, 1245188, -1073741793, 0, 1376259, -1073741794, 0 )

[node name="collision" type="TileMap" parent="."]
tile_set = ExtResource( 3 )
cell_quadrant_size = 2
collision_use_kinematic = true
collision_friction = 0.0
bake_navigation = true
format = 1
tile_data = PoolIntArray( -393226, 1, 0, -393225, 2, 0, -393224, 2, 0, -393223, 2, 0, -393222, 2, 0, -393221, 0, 0, -393220, 2, 0, -393219, 2, 0, -393218, 2, 0, -393217, 2, 0, -458752, 0, 0, -458751, 2, 0, -458750, 2, 0, -458749, 2, 0, -458748, 2, 0, -458747, 0, 0, -458746, 2, 0, -458745, 2, 0, -458744, 2, 0, -458743, 2, 0, -458742, 0, 0, -458741, 2, 0, -458740, 2, 0, -458739, 2, 0, -458738, 2, 0, -458737, 0, 0, -458736, 2, 0, -458735, 2, 0, -458734, 2, 0, -458733, 2, 0, -458732, 0, 0, -458731, 2, 0, -458730, 2, 0, -458729, 2, 0, -458728, 2, 0, -458727, -1610612735, 0, -327690, -1073741822, 0, -393191, -1610612734, 0, -262154, -1073741822, 0, -327655, -1610612734, 0, -196618, -1073741822, 0, -262119, -1610612734, 0, -131082, -1073741822, 0, -196583, -1610612734, 0, -65546, -1073741824, 0, -131047, -1610612736, 0, -10, -1073741822, 0, -65535, 4, 0, -65511, -1610612734, 0, 65524, -1073741821, 0, 65526, -1073741822, 0, 25, -1610612734, 0, 131061, 4, 0, 131062, -1073741822, 0, 131063, 4, 0, 65561, -1610612734, 0, 196597, 4, 0, 196598, -1073741822, 0, 196599, 4, 0, 131097, -1610612734, 0, 262132, -1073741820, 0, 262133, -1610612732, 0, 262134, -1073741824, 0, 196633, -1610612736, 0, 327669, -1073741821, 0, 327670, -1073741822, 0, 262169, -1610612734, 0, 393206, -1073741822, 0, 327705, -1610612734, 0, 458742, -1073741822, 0, 393241, -1610612734, 0, 524278, -1073741822, 0, 458777, -1610612734, 0, 589814, -1073741824, 0, 524313, -1610612736, 0, 655350, -1073741822, 0, 589849, -1610612734, 0, 720886, -1073741822, 0, 655385, -1610612734, 0, 786422, -1073741822, 0, 786427, -1610612732, 0, 786428, 4, 0, 720921, -1610612734, 0, 851958, -1073741822, 0, 786457, -1610612734, 0, 917494, -1073741824, 0, 851993, -1610612736, 0, 983030, -1073741822, 0, 917529, -1610612734, 0, 1048566, -1073741822, 0, 983065, -1610612734, 0, 1114102, -1073741822, 0, 1048601, -1610612734, 0, 1179638, -1073741822, 0, 1114135, 4, 0, 1114136, 4, 0, 1114137, -1610612734, 0, 1245174, -1073741823, 0, 1245175, 1610612738, 0, 1245176, 1610612738, 0, 1245177, 1610612738, 0, 1245178, 1610612738, 0, 1245179, 1610612736, 0, 1245180, 1610612738, 0, 1245181, 1610612738, 0, 1245182, 1610612738, 0, 1245183, 1610612738, 0, 1179648, 1610612736, 0, 1179649, 1610612738, 0, 1179650, 1610612738, 0, 1179651, 1610612738, 0, 1179652, 1610612738, 0, 1179653, 1610612736, 0, 1179654, 1610612738, 0, 1179655, 1610612738, 0, 1179656, 1610612738, 0, 1179657, 1610612738, 0, 1179658, 1610612736, 0, 1179659, 1610612738, 0, 1179660, 1610612738, 0, 1179661, 1610612738, 0, 1179662, 1610612738, 0, 1179663, 1610612736, 0, 1179664, 1610612738, 0, 1179665, 1610612738, 0, 1179666, 1610612738, 0, 1179667, 1610612738, 0, 1179668, 1610612736, 0, 1179669, 1610612738, 0, 1179670, 1610612738, 0, 1179671, 1610612738, 0, 1179672, 1610612738, 0, 1179673, 1610612737, 0 )

[node name="green_tree7" parent="." instance=ExtResource( 4 )]
position = Vector2( 745.541, 883.231 )
scale = Vector2( 1.1, 1.1 )

[node name="green_tree8" parent="." instance=ExtResource( 4 )]
position = Vector2( 1053.66, 675.395 )
scale = Vector2( 1.1, 1.1 )

[node name="green_tree10" parent="." instance=ExtResource( 4 )]
position = Vector2( 1267.71, 598.214 )
scale = Vector2( 1.1, 1.1 )

[node name="green_tree11" parent="." instance=ExtResource( 4 )]
position = Vector2( 363.687, 809.723 )
scale = Vector2( 1.1, 1.1 )

[node name="green_tree12" parent="." instance=ExtResource( 4 )]
position = Vector2( 146.446, 614.195 )
scale = Vector2( 1.1, 1.1 )

[node name="green_tree17" parent="." instance=ExtResource( 4 )]
position = Vector2( 937.48, -32.837 )
rotation = 0.277838
scale = Vector2( 1.1, 1.1 )

[node name="green_tree19" parent="." instance=ExtResource( 4 )]
position = Vector2( -99.951, 664.737 )
rotation = -0.241843
scale = Vector2( 1.1, 1.1 )

[node name="green_tree20" parent="." instance=ExtResource( 4 )]
position = Vector2( -295.217, 444.366 )
rotation = 0.498046
scale = Vector2( 1.1, 1.1 )

[node name="green_tree22" parent="." instance=ExtResource( 4 )]
position = Vector2( -175.268, 14.7803 )
scale = Vector2( 1.1, 1.1 )

[node name="green_tree25" parent="." instance=ExtResource( 4 )]
position = Vector2( 660.412, -194.812 )
scale = Vector2( 1.1, 1.1 )

[node name="green_tree26" parent="." instance=ExtResource( 4 )]
position = Vector2( 1114.77, -250.448 )
rotation = -0.264731
scale = Vector2( 1.1, 1.1 )

[node name="green_tree27" parent="." instance=ExtResource( 4 )]
position = Vector2( 1378.05, -167.851 )
rotation = 0.392566
scale = Vector2( 1.5, 1.5 )

[node name="green_tree28" parent="." instance=ExtResource( 4 )]
position = Vector2( 1654.07, 50.983 )
rotation = -0.255333
scale = Vector2( 1.1, 1.1 )

[node name="green_tree30" parent="." instance=ExtResource( 4 )]
position = Vector2( 1561.08, 253.742 )
rotation = -0.162365
scale = Vector2( 1.1, 1.1 )

[node name="green_tree33" parent="." instance=ExtResource( 4 )]
position = Vector2( 1008.6, 1112.62 )
rotation = 0.619638
scale = Vector2( 1.1, 1.1 )

[node name="green_tree57" parent="." instance=ExtResource( 4 )]
position = Vector2( 686.045, 1298.56 )
rotation = 0.733807
scale = Vector2( 1.1, 1.1 )

[node name="green_tree59" parent="." instance=ExtResource( 4 )]
position = Vector2( 1050.34, 1363.07 )
rotation = 0.619638
scale = Vector2( 1.1, 1.1 )

[node name="green_tree60" parent="." instance=ExtResource( 4 )]
position = Vector2( 1649.92, 1067.08 )
rotation = 0.619638
scale = Vector2( 1.1, 1.1 )

[node name="green_tree61" parent="." instance=ExtResource( 4 )]
position = Vector2( 1790.33, 854.574 )
rotation = 0.619638
scale = Vector2( 1.1, 1.1 )

[node name="green_tree62" parent="." instance=ExtResource( 4 )]
position = Vector2( 1782.74, 661.04 )
rotation = 0.619638
scale = Vector2( 1.1, 1.1 )

[node name="green_tree63" parent="." instance=ExtResource( 4 )]
position = Vector2( 1930.73, 585.144 )
rotation = 1.43894
scale = Vector2( 1.1, 1.1 )

[node name="green_tree64" parent="." instance=ExtResource( 4 )]
position = Vector2( 1923.14, 296.741 )
rotation = 0.619638
scale = Vector2( 1.1, 1.1 )

[node name="green_tree34" parent="." instance=ExtResource( 4 )]
position = Vector2( 1253.79, 1206.28 )
scale = Vector2( 1.1, 1.1 )

[node name="green_tree35" parent="." instance=ExtResource( 4 )]
position = Vector2( -169.527, 907.132 )
scale = Vector2( 1.1, 1.1 )

[node name="green_tree36" parent="." instance=ExtResource( 4 )]
position = Vector2( 104.457, 1242.76 )
scale = Vector2( 1.1, 1.1 )

[node name="green_tree38" parent="." instance=ExtResource( 4 )]
position = Vector2( -590.776, 1208.51 )
scale = Vector2( 1.1, 1.1 )

[node name="green_tree39" parent="." instance=ExtResource( 4 )]
position = Vector2( -621.599, 776.99 )
scale = Vector2( 1.1, 1.1 )

[node name="green_tree40" parent="." instance=ExtResource( 4 )]
position = Vector2( -422.961, 972.203 )
scale = Vector2( 1.3, 1.3 )

[node name="green_tree42" parent="." instance=ExtResource( 4 )]
position = Vector2( -477.758, 290.669 )
scale = Vector2( 1.1, 1.1 )

[node name="green_tree43" parent="." instance=ExtResource( 4 )]
position = Vector2( -635.298, 629.724 )
scale = Vector2( 1.1, 1.1 )

[node name="green_tree45" parent="." instance=ExtResource( 4 )]
position = Vector2( -388.713, -425.112 )
scale = Vector2( 1.1, 1.1 )

[node name="green_tree46" parent="." instance=ExtResource( 4 )]
position = Vector2( -607.9, -209.351 )
scale = Vector2( 1.1, 1.1 )

[node name="green_tree48" parent="." instance=ExtResource( 4 )]
position = Vector2( -771.716, -156.806 )
scale = Vector2( 1.1, 1.1 )

[node name="green_tree49" parent="." instance=ExtResource( 4 )]
position = Vector2( -731.535, -308.259 )
scale = Vector2( 1.1, 1.1 )

[node name="green_tree50" parent="." instance=ExtResource( 4 )]
position = Vector2( -542.829, -534.706 )
scale = Vector2( 1.1, 1.1 )

[node name="green_tree51" parent="." instance=ExtResource( 4 )]
position = Vector2( -104.455, -548.405 )
scale = Vector2( 1.1, 1.1 )

[node name="green_tree53" parent="." instance=ExtResource( 4 )]
position = Vector2( 111.306, -616.901 )
scale = Vector2( 1.1, 1.1 )

[node name="green_tree54" parent="." instance=ExtResource( 4 )]
position = Vector2( 320.219, -544.98 )
scale = Vector2( 1.1, 1.1 )

[node name="green_tree55" parent="." instance=ExtResource( 4 )]
position = Vector2( 450.361, -455.936 )
scale = Vector2( 1.1, 1.1 )

[node name="green_tree56" parent="." instance=ExtResource( 4 )]
position = Vector2( 635.3, -548.405 )
rotation = 0.60146
scale = Vector2( 1.1, 1.1 )

[node name="enemy_spawner2" parent="." instance=ExtResource( 5 )]
position = Vector2( 1312.98, 279.214 )

[node name="enemy_spawner3" parent="." instance=ExtResource( 5 )]
position = Vector2( -265.058, 288.165 )

[node name="box" parent="." instance=ExtResource( 6 )]
position = Vector2( -299.788, 626.139 )

[node name="box2" parent="." instance=ExtResource( 6 )]
position = Vector2( 345.181, -171.837 )

[node name="box3" parent="." instance=ExtResource( 6 )]
position = Vector2( 283.38, -195.954 )

[node name="box4" parent="." instance=ExtResource( 6 )]
position = Vector2( 81.3965, 55.7716 )

[node name="box5" parent="." instance=ExtResource( 6 )]
position = Vector2( -488.165, -234.319 )

[node name="box6" parent="." instance=ExtResource( 6 )]
position = Vector2( -393.321, 192.476 )

[node name="box7" parent="." instance=ExtResource( 6 )]
position = Vector2( 493.322, 565.422 )

[node name="box8" parent="." instance=ExtResource( 6 )]
position = Vector2( 1252.17, 26.9831 )

[node name="box9" parent="." instance=ExtResource( 6 )]
position = Vector2( 1382.94, 439.985 )

[node name="box10" parent="." instance=ExtResource( 6 )]
position = Vector2( 1552.07, 588.191 )

[node name="box11" parent="." instance=ExtResource( 6 )]
position = Vector2( 1426.84, 675.471 )

[node name="night" type="Node2D" parent="."]
visible = false
z_index = 10

[node name="Light2D" type="Light2D" parent="night"]
texture = ExtResource( 8 )
texture_scale = 3.0
mode = 2

[node name="ColorRect" type="ColorRect" parent="night"]
visible = false
margin_left = -1339.0
margin_top = -880.0
margin_right = 2197.0
margin_bottom = 1670.0
color = Color( 0.054902, 0.054902, 0.109804, 1 )
__meta__ = {
"_edit_use_anchors_": false
}

[node name="spawn_point" type="Position2D" parent="."]
position = Vector2( 565.088, 352.752 )

[node name="NavigationPolygonInstance" type="NavigationPolygonInstance" parent="."]
visible = false
navpoly = SubResource( 1 )

[node name="day_night" parent="." instance=ExtResource( 9 )]
